@RELATION POKER

@ATTRIBUTE P_1 NUMERIC
@ATTRIBUTE P_2 NUMERIC
@ATTRIBUTE P_3 NUMERIC
@ATTRIBUTE P_4 NUMERIC
@ATTRIBUTE P_5 NUMERIC
@ATTRIBUTE P_6 NUMERIC
@ATTRIBUTE P_7 NUMERIC
@ATTRIBUTE P_8 NUMERIC
@ATTRIBUTE P_9 NUMERIC
@ATTRIBUTE P_10 NUMERIC
@ATTRIBUTE P_11 NUMERIC
@ATTRIBUTE P_12 NUMERIC
@ATTRIBUTE P_13 NUMERIC
@ATTRIBUTE P_14 NUMERIC
@ATTRIBUTE P_15 NUMERIC
@ATTRIBUTE P_16 NUMERIC
@ATTRIBUTE P_17 NUMERIC
@ATTRIBUTE P_18 NUMERIC
@ATTRIBUTE P_19 NUMERIC
@ATTRIBUTE P_20 NUMERIC
@ATTRIBUTE P_21 NUMERIC
@ATTRIBUTE P_22 NUMERIC
@ATTRIBUTE P_23 NUMERIC
@ATTRIBUTE P_24 NUMERIC
@ATTRIBUTE P_25 NUMERIC
@ATTRIBUTE P_26 NUMERIC
@ATTRIBUTE P_27 NUMERIC
@ATTRIBUTE P_28 NUMERIC
@ATTRIBUTE P_29 NUMERIC
@ATTRIBUTE P_30 NUMERIC
@ATTRIBUTE P_31 NUMERIC
@ATTRIBUTE P_32 NUMERIC
@ATTRIBUTE P_33 NUMERIC
@ATTRIBUTE P_34 NUMERIC
@ATTRIBUTE P_35 NUMERIC
@ATTRIBUTE P_36 NUMERIC
@ATTRIBUTE P_37 NUMERIC
@ATTRIBUTE P_38 NUMERIC
@ATTRIBUTE P_39 NUMERIC
@ATTRIBUTE P_40 NUMERIC
@ATTRIBUTE P_41 NUMERIC
@ATTRIBUTE P_42 NUMERIC
@ATTRIBUTE P_43 NUMERIC
@ATTRIBUTE P_44 NUMERIC
@ATTRIBUTE P_45 NUMERIC
@ATTRIBUTE P_46 NUMERIC
@ATTRIBUTE P_47 NUMERIC
@ATTRIBUTE P_48 NUMERIC
@ATTRIBUTE P_49 NUMERIC
@ATTRIBUTE P_50 NUMERIC
@ATTRIBUTE P_51 NUMERIC
@ATTRIBUTE P_52 NUMERIC
@ATTRIBUTE P_53 NUMERIC
@ATTRIBUTE P_54 NUMERIC
@ATTRIBUTE P_55 NUMERIC
@ATTRIBUTE P_56 NUMERIC
@ATTRIBUTE P_57 NUMERIC
@ATTRIBUTE P_58 NUMERIC
@ATTRIBUTE P_59 NUMERIC
@ATTRIBUTE P_60 NUMERIC
@ATTRIBUTE P_61 NUMERIC
@ATTRIBUTE P_62 NUMERIC
@ATTRIBUTE P_63 NUMERIC
@ATTRIBUTE P_64 NUMERIC
@ATTRIBUTE P_65 NUMERIC
@ATTRIBUTE P_66 NUMERIC
@ATTRIBUTE P_67 NUMERIC
@ATTRIBUTE P_68 NUMERIC
@ATTRIBUTE P_69 NUMERIC
@ATTRIBUTE P_70 NUMERIC
@ATTRIBUTE P_71 NUMERIC
@ATTRIBUTE P_72 NUMERIC
@ATTRIBUTE P_73 NUMERIC
@ATTRIBUTE P_74 NUMERIC
@ATTRIBUTE P_75 NUMERIC
@ATTRIBUTE P_76 NUMERIC
@ATTRIBUTE P_77 NUMERIC
@ATTRIBUTE P_78 NUMERIC
@ATTRIBUTE P_79 NUMERIC
@ATTRIBUTE P_80 NUMERIC
@ATTRIBUTE P_81 NUMERIC
@ATTRIBUTE P_82 NUMERIC
@ATTRIBUTE P_83 NUMERIC
@ATTRIBUTE P_84 NUMERIC
@ATTRIBUTE P_85 NUMERIC
@ATTRIBUTE P_86 NUMERIC
@ATTRIBUTE P_87 NUMERIC
@ATTRIBUTE P_88 NUMERIC
@ATTRIBUTE P_89 NUMERIC
@ATTRIBUTE P_90 NUMERIC
@ATTRIBUTE P_91 NUMERIC
@ATTRIBUTE P_92 NUMERIC
@ATTRIBUTE P_93 NUMERIC
@ATTRIBUTE P_94 NUMERIC
@ATTRIBUTE P_95 NUMERIC
@ATTRIBUTE P_96 NUMERIC
@ATTRIBUTE P_97 NUMERIC
@ATTRIBUTE P_98 NUMERIC
@ATTRIBUTE P_99 NUMERIC
@ATTRIBUTE P_100 NUMERIC
@ATTRIBUTE P_101 NUMERIC
@ATTRIBUTE P_102 NUMERIC
@ATTRIBUTE P_103 NUMERIC
@ATTRIBUTE P_104 NUMERIC
@ATTRIBUTE P_105 NUMERIC
@ATTRIBUTE P_106 NUMERIC
@ATTRIBUTE P_107 NUMERIC
@ATTRIBUTE P_108 NUMERIC
@ATTRIBUTE P_109 NUMERIC
@ATTRIBUTE P_110 NUMERIC
@ATTRIBUTE P_111 NUMERIC
@ATTRIBUTE P_112 NUMERIC
@ATTRIBUTE P_113 NUMERIC
@ATTRIBUTE P_114 NUMERIC
@ATTRIBUTE P_115 NUMERIC
@ATTRIBUTE P_116 NUMERIC
@ATTRIBUTE P_117 NUMERIC
@ATTRIBUTE P_118 NUMERIC
@ATTRIBUTE P_119 NUMERIC
@ATTRIBUTE P_120 NUMERIC
@ATTRIBUTE P_121 NUMERIC
@ATTRIBUTE P_122 NUMERIC
@ATTRIBUTE P_123 NUMERIC
@ATTRIBUTE P_124 NUMERIC
@ATTRIBUTE P_125 NUMERIC
@ATTRIBUTE P_126 NUMERIC
@ATTRIBUTE P_127 NUMERIC
@ATTRIBUTE P_128 NUMERIC
@ATTRIBUTE P_129 NUMERIC
@ATTRIBUTE P_130 NUMERIC
@ATTRIBUTE P_131 NUMERIC
@ATTRIBUTE P_132 NUMERIC
@ATTRIBUTE P_133 NUMERIC
@ATTRIBUTE P_134 NUMERIC
@ATTRIBUTE P_135 NUMERIC
@ATTRIBUTE P_136 NUMERIC
@ATTRIBUTE P_137 NUMERIC
@ATTRIBUTE P_138 NUMERIC
@ATTRIBUTE P_139 NUMERIC
@ATTRIBUTE P_140 NUMERIC
@ATTRIBUTE P_141 NUMERIC
@ATTRIBUTE P_142 NUMERIC
@ATTRIBUTE P_143 NUMERIC
@ATTRIBUTE P_144 NUMERIC
@ATTRIBUTE P_145 NUMERIC
@ATTRIBUTE P_146 NUMERIC
@ATTRIBUTE P_147 NUMERIC
@ATTRIBUTE P_148 NUMERIC
@ATTRIBUTE P_149 NUMERIC
@ATTRIBUTE P_150 NUMERIC
@ATTRIBUTE P_151 NUMERIC
@ATTRIBUTE P_152 NUMERIC
@ATTRIBUTE P_153 NUMERIC
@ATTRIBUTE P_154 NUMERIC
@ATTRIBUTE P_155 NUMERIC
@ATTRIBUTE P_156 NUMERIC
@ATTRIBUTE P_157 NUMERIC
@ATTRIBUTE P_158 NUMERIC
@ATTRIBUTE P_159 NUMERIC
@ATTRIBUTE P_160 NUMERIC

@ATTRIBUTE class {1,2,3,4,5,6,7,8,9,10}

@DATA
47 47 47 47 47 47 46 46 47 47 47 47 47 47 65 88 49 46 47 47 47 47 66 209 255 255 247 144 47 47 47 56 229 255 161 108 219 255 147 47 45 136 255 209 47 47 92 255 243 56 47 224 255 149 47 47 47 239 255 130 51 253 255 119 47 47 47 211 255 165 75 255 255 107 47 47 47 199 255 191 78 255 255 105 47 47 47 197 255 193 53 254 255 117 47 47 47 210 255 169 48 229 255 144 48 48 47 237 255 137 47 145 255 203 48 47 88 255 246 63 47 59 232 255 151 102 216 255 154 47 46 47 71 216 255 255 249 150 47 47 47 47 47 47 70 91 53 47 47 47 47 47 47 47 47 47 47 47 47 47 1
47 47 47 47 47 47 46 46 47 47 47 47 47 47 65 88 49 46 47 47 47 47 66 209 255 255 247 144 47 47 47 56 229 255 161 108 219 255 147 47 45 136 255 209 47 47 92 255 243 56 47 224 255 149 47 47 47 239 255 130 51 253 255 119 47 47 47 211 255 165 75 255 255 107 47 47 47 199 255 191 78 255 255 105 47 47 47 197 255 193 53 254 255 117 47 47 47 210 255 169 48 229 255 144 48 48 47 237 255 137 47 145 255 203 48 47 88 255 246 63 47 59 232 255 151 102 216 255 154 47 46 47 71 216 255 255 249 150 47 47 47 47 47 47 70 91 53 47 47 47 47 47 47 47 47 47 47 47 47 47 2
47 47 47 47 47 47 46 46 47 47 47 47 47 47 65 88 49 46 47 47 47 47 66 209 255 255 247 144 47 47 47 56 229 255 161 108 219 255 147 47 45 136 255 209 47 47 92 255 243 56 47 224 255 149 47 47 47 239 255 130 51 253 255 119 47 47 47 211 255 165 75 255 255 107 47 47 47 199 255 191 78 255 255 105 47 47 47 197 255 193 53 254 255 117 47 47 47 210 255 169 48 229 255 144 48 48 47 237 255 137 47 145 255 203 48 47 88 255 246 63 47 59 232 255 151 102 216 255 154 47 46 47 71 216 255 255 249 150 47 47 47 47 47 47 70 91 53 47 47 47 47 47 47 47 47 47 47 47 47 47 3
47 47 47 47 47 47 46 46 47 47 47 47 47 47 65 88 49 46 47 47 47 47 66 209 255 255 247 144 47 47 47 56 229 255 161 108 219 255 147 47 45 136 255 209 47 47 92 255 243 56 47 224 255 149 47 47 47 239 255 130 51 253 255 119 47 47 47 211 255 165 75 255 255 107 47 47 47 199 255 191 78 255 255 105 47 47 47 197 255 193 53 254 255 117 47 47 47 210 255 169 48 229 255 144 48 48 47 237 255 137 47 145 255 203 48 47 88 255 246 63 47 59 232 255 151 102 216 255 154 47 46 47 71 216 255 255 249 150 47 47 47 47 47 47 70 91 53 47 47 47 47 47 47 47 47 47 47 47 47 47 4
47 47 47 47 47 47 46 46 47 47 47 47 47 47 65 88 49 46 47 47 47 47 66 209 255 255 247 144 47 47 47 56 229 255 161 108 219 255 147 47 45 136 255 209 47 47 92 255 243 56 47 224 255 149 47 47 47 239 255 130 51 253 255 119 47 47 47 211 255 165 75 255 255 107 47 47 47 199 255 191 78 255 255 105 47 47 47 197 255 193 53 254 255 117 47 47 47 210 255 169 48 229 255 144 48 48 47 237 255 137 47 145 255 203 48 47 88 255 246 63 47 59 232 255 151 102 216 255 154 47 46 47 71 216 255 255 249 150 47 47 47 47 47 47 70 91 53 47 47 47 47 47 47 47 47 47 47 47 47 47 5
47 47 47 47 47 47 46 46 47 47 47 47 47 47 65 88 49 46 47 47 47 47 66 209 255 255 247 144 47 47 47 56 229 255 161 108 219 255 147 47 45 136 255 209 47 47 92 255 243 56 47 224 255 149 47 47 47 239 255 130 51 253 255 119 47 47 47 211 255 165 75 255 255 107 47 47 47 199 255 191 78 255 255 105 47 47 47 197 255 193 53 254 255 117 47 47 47 210 255 169 48 229 255 144 48 48 47 237 255 137 47 145 255 203 48 47 88 255 246 63 47 59 232 255 151 102 216 255 154 47 46 47 71 216 255 255 249 150 47 47 47 47 47 47 70 91 53 47 47 47 47 47 47 47 47 47 47 47 47 47 6
47 47 47 47 47 47 46 46 47 47 47 47 47 47 65 88 49 46 47 47 47 47 66 209 255 255 247 144 47 47 47 56 229 255 161 108 219 255 147 47 45 136 255 209 47 47 92 255 243 56 47 224 255 149 47 47 47 239 255 130 51 253 255 119 47 47 47 211 255 165 75 255 255 107 47 47 47 199 255 191 78 255 255 105 47 47 47 197 255 193 53 254 255 117 47 47 47 210 255 169 48 229 255 144 48 48 47 237 255 137 47 145 255 203 48 47 88 255 246 63 47 59 232 255 151 102 216 255 154 47 46 47 71 216 255 255 249 150 47 47 47 47 47 47 70 91 53 47 47 47 47 47 47 47 47 47 47 47 47 47 7
47 47 47 47 47 47 46 46 47 47 47 47 47 47 65 88 49 46 47 47 47 47 66 209 255 255 247 144 47 47 47 56 229 255 161 108 219 255 147 47 45 136 255 209 47 47 92 255 243 56 47 224 255 149 47 47 47 239 255 130 51 253 255 119 47 47 47 211 255 165 75 255 255 107 47 47 47 199 255 191 78 255 255 105 47 47 47 197 255 193 53 254 255 117 47 47 47 210 255 169 48 229 255 144 48 48 47 237 255 137 47 145 255 203 48 47 88 255 246 63 47 59 232 255 151 102 216 255 154 47 46 47 71 216 255 255 249 150 47 47 47 47 47 47 70 91 53 47 47 47 47 47 47 47 47 47 47 47 47 47 8
47 47 47 47 47 47 46 46 47 47 47 47 47 47 65 88 49 46 47 47 47 47 66 209 255 255 247 144 47 47 47 56 229 255 161 108 219 255 147 47 45 136 255 209 47 47 92 255 243 56 47 224 255 149 47 47 47 239 255 130 51 253 255 119 47 47 47 211 255 165 75 255 255 107 47 47 47 199 255 191 78 255 255 105 47 47 47 197 255 193 53 254 255 117 47 47 47 210 255 169 48 229 255 144 48 48 47 237 255 137 47 145 255 203 48 47 88 255 246 63 47 59 232 255 151 102 216 255 154 47 46 47 71 216 255 255 249 150 47 47 47 47 47 47 70 91 53 47 47 47 47 47 47 47 47 47 47 47 47 47 9
47 47 47 47 47 47 46 46 47 47 47 47 47 47 65 88 49 46 47 47 47 47 66 209 255 255 247 144 47 47 47 56 229 255 161 108 219 255 147 47 45 136 255 209 47 47 92 255 243 56 47 224 255 149 47 47 47 239 255 130 51 253 255 119 47 47 47 211 255 165 75 255 255 107 47 47 47 199 255 191 78 255 255 105 47 47 47 197 255 193 53 254 255 117 47 47 47 210 255 169 48 229 255 144 48 48 47 237 255 137 47 145 255 203 48 47 88 255 246 63 47 59 232 255 151 102 216 255 154 47 46 47 71 216 255 255 249 150 47 47 47 47 47 47 70 91 53 47 47 47 47 47 47 47 47 47 47 47 47 47 10
