@RELATION POKER

@ATTRIBUTE P_1 NUMERIC
@ATTRIBUTE P_2 NUMERIC
@ATTRIBUTE P_3 NUMERIC
@ATTRIBUTE P_4 NUMERIC
@ATTRIBUTE P_5 NUMERIC
@ATTRIBUTE P_6 NUMERIC
@ATTRIBUTE P_7 NUMERIC
@ATTRIBUTE P_8 NUMERIC
@ATTRIBUTE P_9 NUMERIC
@ATTRIBUTE P_10 NUMERIC
@ATTRIBUTE P_11 NUMERIC
@ATTRIBUTE P_12 NUMERIC
@ATTRIBUTE P_13 NUMERIC
@ATTRIBUTE P_14 NUMERIC
@ATTRIBUTE P_15 NUMERIC
@ATTRIBUTE P_16 NUMERIC
@ATTRIBUTE P_17 NUMERIC
@ATTRIBUTE P_18 NUMERIC
@ATTRIBUTE P_19 NUMERIC
@ATTRIBUTE P_20 NUMERIC
@ATTRIBUTE P_21 NUMERIC
@ATTRIBUTE P_22 NUMERIC
@ATTRIBUTE P_23 NUMERIC
@ATTRIBUTE P_24 NUMERIC
@ATTRIBUTE P_25 NUMERIC
@ATTRIBUTE P_26 NUMERIC
@ATTRIBUTE P_27 NUMERIC
@ATTRIBUTE P_28 NUMERIC
@ATTRIBUTE P_29 NUMERIC
@ATTRIBUTE P_30 NUMERIC
@ATTRIBUTE P_31 NUMERIC
@ATTRIBUTE P_32 NUMERIC
@ATTRIBUTE P_33 NUMERIC
@ATTRIBUTE P_34 NUMERIC
@ATTRIBUTE P_35 NUMERIC
@ATTRIBUTE P_36 NUMERIC
@ATTRIBUTE P_37 NUMERIC
@ATTRIBUTE P_38 NUMERIC
@ATTRIBUTE P_39 NUMERIC
@ATTRIBUTE P_40 NUMERIC
@ATTRIBUTE P_41 NUMERIC
@ATTRIBUTE P_42 NUMERIC
@ATTRIBUTE P_43 NUMERIC
@ATTRIBUTE P_44 NUMERIC
@ATTRIBUTE P_45 NUMERIC
@ATTRIBUTE P_46 NUMERIC
@ATTRIBUTE P_47 NUMERIC
@ATTRIBUTE P_48 NUMERIC
@ATTRIBUTE P_49 NUMERIC
@ATTRIBUTE P_50 NUMERIC
@ATTRIBUTE P_51 NUMERIC
@ATTRIBUTE P_52 NUMERIC
@ATTRIBUTE P_53 NUMERIC
@ATTRIBUTE P_54 NUMERIC
@ATTRIBUTE P_55 NUMERIC
@ATTRIBUTE P_56 NUMERIC
@ATTRIBUTE P_57 NUMERIC
@ATTRIBUTE P_58 NUMERIC
@ATTRIBUTE P_59 NUMERIC
@ATTRIBUTE P_60 NUMERIC
@ATTRIBUTE P_61 NUMERIC
@ATTRIBUTE P_62 NUMERIC
@ATTRIBUTE P_63 NUMERIC
@ATTRIBUTE P_64 NUMERIC
@ATTRIBUTE P_65 NUMERIC
@ATTRIBUTE P_66 NUMERIC
@ATTRIBUTE P_67 NUMERIC
@ATTRIBUTE P_68 NUMERIC
@ATTRIBUTE P_69 NUMERIC
@ATTRIBUTE P_70 NUMERIC
@ATTRIBUTE P_71 NUMERIC
@ATTRIBUTE P_72 NUMERIC
@ATTRIBUTE P_73 NUMERIC
@ATTRIBUTE P_74 NUMERIC
@ATTRIBUTE P_75 NUMERIC
@ATTRIBUTE P_76 NUMERIC
@ATTRIBUTE P_77 NUMERIC
@ATTRIBUTE P_78 NUMERIC
@ATTRIBUTE P_79 NUMERIC
@ATTRIBUTE P_80 NUMERIC
@ATTRIBUTE P_81 NUMERIC
@ATTRIBUTE P_82 NUMERIC
@ATTRIBUTE P_83 NUMERIC
@ATTRIBUTE P_84 NUMERIC
@ATTRIBUTE P_85 NUMERIC
@ATTRIBUTE P_86 NUMERIC
@ATTRIBUTE P_87 NUMERIC
@ATTRIBUTE P_88 NUMERIC
@ATTRIBUTE P_89 NUMERIC
@ATTRIBUTE P_90 NUMERIC
@ATTRIBUTE P_91 NUMERIC
@ATTRIBUTE P_92 NUMERIC
@ATTRIBUTE P_93 NUMERIC
@ATTRIBUTE P_94 NUMERIC
@ATTRIBUTE P_95 NUMERIC
@ATTRIBUTE P_96 NUMERIC
@ATTRIBUTE P_97 NUMERIC
@ATTRIBUTE P_98 NUMERIC
@ATTRIBUTE P_99 NUMERIC
@ATTRIBUTE P_100 NUMERIC
@ATTRIBUTE P_101 NUMERIC
@ATTRIBUTE P_102 NUMERIC
@ATTRIBUTE P_103 NUMERIC
@ATTRIBUTE P_104 NUMERIC
@ATTRIBUTE P_105 NUMERIC
@ATTRIBUTE P_106 NUMERIC
@ATTRIBUTE P_107 NUMERIC
@ATTRIBUTE P_108 NUMERIC
@ATTRIBUTE P_109 NUMERIC
@ATTRIBUTE P_110 NUMERIC
@ATTRIBUTE P_111 NUMERIC
@ATTRIBUTE P_112 NUMERIC
@ATTRIBUTE P_113 NUMERIC
@ATTRIBUTE P_114 NUMERIC
@ATTRIBUTE P_115 NUMERIC
@ATTRIBUTE P_116 NUMERIC
@ATTRIBUTE P_117 NUMERIC
@ATTRIBUTE P_118 NUMERIC
@ATTRIBUTE P_119 NUMERIC
@ATTRIBUTE P_120 NUMERIC
@ATTRIBUTE P_121 NUMERIC
@ATTRIBUTE P_122 NUMERIC
@ATTRIBUTE P_123 NUMERIC
@ATTRIBUTE P_124 NUMERIC
@ATTRIBUTE P_125 NUMERIC
@ATTRIBUTE P_126 NUMERIC
@ATTRIBUTE P_127 NUMERIC
@ATTRIBUTE P_128 NUMERIC
@ATTRIBUTE P_129 NUMERIC
@ATTRIBUTE P_130 NUMERIC
@ATTRIBUTE P_131 NUMERIC
@ATTRIBUTE P_132 NUMERIC
@ATTRIBUTE P_133 NUMERIC
@ATTRIBUTE P_134 NUMERIC
@ATTRIBUTE P_135 NUMERIC
@ATTRIBUTE P_136 NUMERIC
@ATTRIBUTE P_137 NUMERIC
@ATTRIBUTE P_138 NUMERIC
@ATTRIBUTE P_139 NUMERIC
@ATTRIBUTE P_140 NUMERIC
@ATTRIBUTE P_141 NUMERIC
@ATTRIBUTE P_142 NUMERIC
@ATTRIBUTE P_143 NUMERIC
@ATTRIBUTE P_144 NUMERIC
@ATTRIBUTE P_145 NUMERIC
@ATTRIBUTE P_146 NUMERIC
@ATTRIBUTE P_147 NUMERIC
@ATTRIBUTE P_148 NUMERIC
@ATTRIBUTE P_149 NUMERIC
@ATTRIBUTE P_150 NUMERIC
@ATTRIBUTE P_151 NUMERIC
@ATTRIBUTE P_152 NUMERIC
@ATTRIBUTE P_153 NUMERIC
@ATTRIBUTE P_154 NUMERIC
@ATTRIBUTE P_155 NUMERIC
@ATTRIBUTE P_156 NUMERIC
@ATTRIBUTE P_157 NUMERIC
@ATTRIBUTE P_158 NUMERIC
@ATTRIBUTE P_159 NUMERIC
@ATTRIBUTE P_160 NUMERIC
@ATTRIBUTE P_161 NUMERIC
@ATTRIBUTE P_162 NUMERIC
@ATTRIBUTE P_163 NUMERIC
@ATTRIBUTE P_164 NUMERIC
@ATTRIBUTE P_165 NUMERIC
@ATTRIBUTE P_166 NUMERIC
@ATTRIBUTE P_167 NUMERIC
@ATTRIBUTE P_168 NUMERIC
@ATTRIBUTE P_169 NUMERIC
@ATTRIBUTE P_170 NUMERIC
@ATTRIBUTE P_171 NUMERIC
@ATTRIBUTE P_172 NUMERIC
@ATTRIBUTE P_173 NUMERIC
@ATTRIBUTE P_174 NUMERIC
@ATTRIBUTE P_175 NUMERIC
@ATTRIBUTE P_176 NUMERIC
@ATTRIBUTE P_177 NUMERIC
@ATTRIBUTE P_178 NUMERIC
@ATTRIBUTE P_179 NUMERIC
@ATTRIBUTE P_180 NUMERIC
@ATTRIBUTE P_181 NUMERIC
@ATTRIBUTE P_182 NUMERIC
@ATTRIBUTE P_183 NUMERIC
@ATTRIBUTE P_184 NUMERIC
@ATTRIBUTE P_185 NUMERIC
@ATTRIBUTE P_186 NUMERIC
@ATTRIBUTE P_187 NUMERIC
@ATTRIBUTE P_188 NUMERIC
@ATTRIBUTE P_189 NUMERIC
@ATTRIBUTE P_190 NUMERIC
@ATTRIBUTE P_191 NUMERIC
@ATTRIBUTE P_192 NUMERIC
@ATTRIBUTE P_193 NUMERIC
@ATTRIBUTE P_194 NUMERIC
@ATTRIBUTE P_195 NUMERIC
@ATTRIBUTE P_196 NUMERIC
@ATTRIBUTE P_197 NUMERIC
@ATTRIBUTE P_198 NUMERIC
@ATTRIBUTE P_199 NUMERIC
@ATTRIBUTE P_200 NUMERIC
@ATTRIBUTE P_201 NUMERIC
@ATTRIBUTE P_202 NUMERIC
@ATTRIBUTE P_203 NUMERIC
@ATTRIBUTE P_204 NUMERIC
@ATTRIBUTE P_205 NUMERIC
@ATTRIBUTE P_206 NUMERIC
@ATTRIBUTE P_207 NUMERIC
@ATTRIBUTE P_208 NUMERIC
@ATTRIBUTE P_209 NUMERIC
@ATTRIBUTE P_210 NUMERIC
@ATTRIBUTE P_211 NUMERIC
@ATTRIBUTE P_212 NUMERIC
@ATTRIBUTE P_213 NUMERIC
@ATTRIBUTE P_214 NUMERIC
@ATTRIBUTE P_215 NUMERIC
@ATTRIBUTE P_216 NUMERIC
@ATTRIBUTE P_217 NUMERIC
@ATTRIBUTE P_218 NUMERIC
@ATTRIBUTE P_219 NUMERIC
@ATTRIBUTE P_220 NUMERIC
@ATTRIBUTE P_221 NUMERIC
@ATTRIBUTE P_222 NUMERIC
@ATTRIBUTE P_223 NUMERIC
@ATTRIBUTE P_224 NUMERIC
@ATTRIBUTE P_225 NUMERIC
@ATTRIBUTE P_226 NUMERIC
@ATTRIBUTE P_227 NUMERIC
@ATTRIBUTE P_228 NUMERIC
@ATTRIBUTE P_229 NUMERIC
@ATTRIBUTE P_230 NUMERIC
@ATTRIBUTE P_231 NUMERIC
@ATTRIBUTE P_232 NUMERIC
@ATTRIBUTE P_233 NUMERIC
@ATTRIBUTE P_234 NUMERIC
@ATTRIBUTE P_235 NUMERIC
@ATTRIBUTE P_236 NUMERIC
@ATTRIBUTE P_237 NUMERIC
@ATTRIBUTE P_238 NUMERIC
@ATTRIBUTE P_239 NUMERIC
@ATTRIBUTE P_240 NUMERIC
@ATTRIBUTE P_241 NUMERIC
@ATTRIBUTE P_242 NUMERIC
@ATTRIBUTE P_243 NUMERIC
@ATTRIBUTE P_244 NUMERIC
@ATTRIBUTE P_245 NUMERIC
@ATTRIBUTE P_246 NUMERIC
@ATTRIBUTE P_247 NUMERIC
@ATTRIBUTE P_248 NUMERIC
@ATTRIBUTE P_249 NUMERIC
@ATTRIBUTE P_250 NUMERIC
@ATTRIBUTE P_251 NUMERIC
@ATTRIBUTE P_252 NUMERIC
@ATTRIBUTE P_253 NUMERIC
@ATTRIBUTE P_254 NUMERIC
@ATTRIBUTE P_255 NUMERIC
@ATTRIBUTE P_256 NUMERIC
@ATTRIBUTE P_257 NUMERIC
@ATTRIBUTE P_258 NUMERIC
@ATTRIBUTE P_259 NUMERIC
@ATTRIBUTE P_260 NUMERIC
@ATTRIBUTE P_261 NUMERIC
@ATTRIBUTE P_262 NUMERIC
@ATTRIBUTE P_263 NUMERIC
@ATTRIBUTE P_264 NUMERIC
@ATTRIBUTE P_265 NUMERIC
@ATTRIBUTE P_266 NUMERIC
@ATTRIBUTE P_267 NUMERIC
@ATTRIBUTE P_268 NUMERIC
@ATTRIBUTE P_269 NUMERIC
@ATTRIBUTE P_270 NUMERIC
@ATTRIBUTE P_271 NUMERIC
@ATTRIBUTE P_272 NUMERIC
@ATTRIBUTE P_273 NUMERIC
@ATTRIBUTE P_274 NUMERIC
@ATTRIBUTE P_275 NUMERIC
@ATTRIBUTE P_276 NUMERIC
@ATTRIBUTE P_277 NUMERIC
@ATTRIBUTE P_278 NUMERIC
@ATTRIBUTE P_279 NUMERIC
@ATTRIBUTE P_280 NUMERIC
@ATTRIBUTE P_281 NUMERIC
@ATTRIBUTE P_282 NUMERIC
@ATTRIBUTE P_283 NUMERIC
@ATTRIBUTE P_284 NUMERIC
@ATTRIBUTE P_285 NUMERIC
@ATTRIBUTE P_286 NUMERIC
@ATTRIBUTE P_287 NUMERIC
@ATTRIBUTE P_288 NUMERIC
@ATTRIBUTE P_289 NUMERIC
@ATTRIBUTE P_290 NUMERIC
@ATTRIBUTE P_291 NUMERIC
@ATTRIBUTE P_292 NUMERIC
@ATTRIBUTE P_293 NUMERIC
@ATTRIBUTE P_294 NUMERIC
@ATTRIBUTE P_295 NUMERIC
@ATTRIBUTE P_296 NUMERIC
@ATTRIBUTE P_297 NUMERIC
@ATTRIBUTE P_298 NUMERIC
@ATTRIBUTE P_299 NUMERIC
@ATTRIBUTE P_300 NUMERIC
@ATTRIBUTE P_301 NUMERIC
@ATTRIBUTE P_302 NUMERIC
@ATTRIBUTE P_303 NUMERIC
@ATTRIBUTE P_304 NUMERIC
@ATTRIBUTE P_305 NUMERIC
@ATTRIBUTE P_306 NUMERIC
@ATTRIBUTE P_307 NUMERIC
@ATTRIBUTE P_308 NUMERIC
@ATTRIBUTE P_309 NUMERIC
@ATTRIBUTE P_310 NUMERIC
@ATTRIBUTE P_311 NUMERIC
@ATTRIBUTE P_312 NUMERIC
@ATTRIBUTE P_313 NUMERIC
@ATTRIBUTE P_314 NUMERIC
@ATTRIBUTE P_315 NUMERIC
@ATTRIBUTE P_316 NUMERIC
@ATTRIBUTE P_317 NUMERIC
@ATTRIBUTE P_318 NUMERIC
@ATTRIBUTE P_319 NUMERIC
@ATTRIBUTE P_320 NUMERIC
@ATTRIBUTE P_321 NUMERIC
@ATTRIBUTE P_322 NUMERIC
@ATTRIBUTE P_323 NUMERIC
@ATTRIBUTE P_324 NUMERIC
@ATTRIBUTE P_325 NUMERIC
@ATTRIBUTE P_326 NUMERIC
@ATTRIBUTE P_327 NUMERIC
@ATTRIBUTE P_328 NUMERIC
@ATTRIBUTE P_329 NUMERIC
@ATTRIBUTE P_330 NUMERIC
@ATTRIBUTE P_331 NUMERIC
@ATTRIBUTE P_332 NUMERIC
@ATTRIBUTE P_333 NUMERIC
@ATTRIBUTE P_334 NUMERIC
@ATTRIBUTE P_335 NUMERIC
@ATTRIBUTE P_336 NUMERIC
@ATTRIBUTE P_337 NUMERIC
@ATTRIBUTE P_338 NUMERIC
@ATTRIBUTE P_339 NUMERIC
@ATTRIBUTE P_340 NUMERIC
@ATTRIBUTE P_341 NUMERIC
@ATTRIBUTE P_342 NUMERIC
@ATTRIBUTE P_343 NUMERIC
@ATTRIBUTE P_344 NUMERIC
@ATTRIBUTE P_345 NUMERIC
@ATTRIBUTE P_346 NUMERIC
@ATTRIBUTE P_347 NUMERIC
@ATTRIBUTE P_348 NUMERIC
@ATTRIBUTE P_349 NUMERIC
@ATTRIBUTE P_350 NUMERIC
@ATTRIBUTE P_351 NUMERIC
@ATTRIBUTE P_352 NUMERIC
@ATTRIBUTE P_353 NUMERIC
@ATTRIBUTE P_354 NUMERIC
@ATTRIBUTE P_355 NUMERIC
@ATTRIBUTE P_356 NUMERIC
@ATTRIBUTE P_357 NUMERIC
@ATTRIBUTE P_358 NUMERIC
@ATTRIBUTE P_359 NUMERIC
@ATTRIBUTE P_360 NUMERIC
@ATTRIBUTE P_361 NUMERIC
@ATTRIBUTE P_362 NUMERIC
@ATTRIBUTE P_363 NUMERIC
@ATTRIBUTE P_364 NUMERIC
@ATTRIBUTE P_365 NUMERIC
@ATTRIBUTE P_366 NUMERIC
@ATTRIBUTE P_367 NUMERIC
@ATTRIBUTE P_368 NUMERIC
@ATTRIBUTE P_369 NUMERIC
@ATTRIBUTE P_370 NUMERIC
@ATTRIBUTE P_371 NUMERIC
@ATTRIBUTE P_372 NUMERIC
@ATTRIBUTE P_373 NUMERIC
@ATTRIBUTE P_374 NUMERIC
@ATTRIBUTE P_375 NUMERIC
@ATTRIBUTE P_376 NUMERIC
@ATTRIBUTE P_377 NUMERIC
@ATTRIBUTE P_378 NUMERIC
@ATTRIBUTE P_379 NUMERIC
@ATTRIBUTE P_380 NUMERIC
@ATTRIBUTE P_381 NUMERIC
@ATTRIBUTE P_382 NUMERIC
@ATTRIBUTE P_383 NUMERIC
@ATTRIBUTE P_384 NUMERIC
@ATTRIBUTE P_385 NUMERIC
@ATTRIBUTE P_386 NUMERIC
@ATTRIBUTE P_387 NUMERIC
@ATTRIBUTE P_388 NUMERIC
@ATTRIBUTE P_389 NUMERIC
@ATTRIBUTE P_390 NUMERIC
@ATTRIBUTE P_391 NUMERIC
@ATTRIBUTE P_392 NUMERIC
@ATTRIBUTE P_393 NUMERIC
@ATTRIBUTE P_394 NUMERIC
@ATTRIBUTE P_395 NUMERIC
@ATTRIBUTE P_396 NUMERIC
@ATTRIBUTE P_397 NUMERIC
@ATTRIBUTE P_398 NUMERIC
@ATTRIBUTE P_399 NUMERIC
@ATTRIBUTE P_400 NUMERIC
@ATTRIBUTE P_401 NUMERIC
@ATTRIBUTE P_402 NUMERIC
@ATTRIBUTE P_403 NUMERIC
@ATTRIBUTE P_404 NUMERIC
@ATTRIBUTE P_405 NUMERIC
@ATTRIBUTE P_406 NUMERIC
@ATTRIBUTE P_407 NUMERIC
@ATTRIBUTE P_408 NUMERIC
@ATTRIBUTE P_409 NUMERIC
@ATTRIBUTE P_410 NUMERIC
@ATTRIBUTE P_411 NUMERIC
@ATTRIBUTE P_412 NUMERIC
@ATTRIBUTE P_413 NUMERIC
@ATTRIBUTE P_414 NUMERIC
@ATTRIBUTE P_415 NUMERIC
@ATTRIBUTE P_416 NUMERIC
@ATTRIBUTE P_417 NUMERIC
@ATTRIBUTE P_418 NUMERIC
@ATTRIBUTE P_419 NUMERIC
@ATTRIBUTE P_420 NUMERIC
@ATTRIBUTE P_421 NUMERIC
@ATTRIBUTE P_422 NUMERIC
@ATTRIBUTE P_423 NUMERIC
@ATTRIBUTE P_424 NUMERIC
@ATTRIBUTE P_425 NUMERIC
@ATTRIBUTE P_426 NUMERIC
@ATTRIBUTE P_427 NUMERIC
@ATTRIBUTE P_428 NUMERIC
@ATTRIBUTE P_429 NUMERIC
@ATTRIBUTE P_430 NUMERIC
@ATTRIBUTE P_431 NUMERIC
@ATTRIBUTE P_432 NUMERIC
@ATTRIBUTE P_433 NUMERIC
@ATTRIBUTE P_434 NUMERIC
@ATTRIBUTE P_435 NUMERIC
@ATTRIBUTE P_436 NUMERIC
@ATTRIBUTE P_437 NUMERIC
@ATTRIBUTE P_438 NUMERIC
@ATTRIBUTE P_439 NUMERIC
@ATTRIBUTE P_440 NUMERIC
@ATTRIBUTE P_441 NUMERIC
@ATTRIBUTE P_442 NUMERIC
@ATTRIBUTE P_443 NUMERIC
@ATTRIBUTE P_444 NUMERIC
@ATTRIBUTE P_445 NUMERIC
@ATTRIBUTE P_446 NUMERIC
@ATTRIBUTE P_447 NUMERIC
@ATTRIBUTE P_448 NUMERIC
@ATTRIBUTE P_449 NUMERIC
@ATTRIBUTE P_450 NUMERIC
@ATTRIBUTE P_451 NUMERIC
@ATTRIBUTE P_452 NUMERIC
@ATTRIBUTE P_453 NUMERIC
@ATTRIBUTE P_454 NUMERIC
@ATTRIBUTE P_455 NUMERIC
@ATTRIBUTE P_456 NUMERIC
@ATTRIBUTE P_457 NUMERIC
@ATTRIBUTE P_458 NUMERIC
@ATTRIBUTE P_459 NUMERIC
@ATTRIBUTE P_460 NUMERIC
@ATTRIBUTE P_461 NUMERIC
@ATTRIBUTE P_462 NUMERIC
@ATTRIBUTE P_463 NUMERIC
@ATTRIBUTE P_464 NUMERIC
@ATTRIBUTE P_465 NUMERIC
@ATTRIBUTE P_466 NUMERIC
@ATTRIBUTE P_467 NUMERIC
@ATTRIBUTE P_468 NUMERIC
@ATTRIBUTE P_469 NUMERIC
@ATTRIBUTE P_470 NUMERIC
@ATTRIBUTE P_471 NUMERIC
@ATTRIBUTE P_472 NUMERIC
@ATTRIBUTE P_473 NUMERIC
@ATTRIBUTE P_474 NUMERIC
@ATTRIBUTE P_475 NUMERIC
@ATTRIBUTE P_476 NUMERIC
@ATTRIBUTE P_477 NUMERIC
@ATTRIBUTE P_478 NUMERIC
@ATTRIBUTE P_479 NUMERIC
@ATTRIBUTE P_480 NUMERIC
@ATTRIBUTE P_481 NUMERIC
@ATTRIBUTE P_482 NUMERIC
@ATTRIBUTE P_483 NUMERIC
@ATTRIBUTE P_484 NUMERIC
@ATTRIBUTE P_485 NUMERIC
@ATTRIBUTE P_486 NUMERIC
@ATTRIBUTE P_487 NUMERIC
@ATTRIBUTE P_488 NUMERIC
@ATTRIBUTE P_489 NUMERIC
@ATTRIBUTE P_490 NUMERIC
@ATTRIBUTE P_491 NUMERIC
@ATTRIBUTE P_492 NUMERIC
@ATTRIBUTE P_493 NUMERIC
@ATTRIBUTE P_494 NUMERIC
@ATTRIBUTE P_495 NUMERIC
@ATTRIBUTE P_496 NUMERIC
@ATTRIBUTE P_497 NUMERIC
@ATTRIBUTE P_498 NUMERIC
@ATTRIBUTE P_499 NUMERIC
@ATTRIBUTE P_500 NUMERIC
@ATTRIBUTE P_501 NUMERIC
@ATTRIBUTE P_502 NUMERIC
@ATTRIBUTE P_503 NUMERIC
@ATTRIBUTE P_504 NUMERIC
@ATTRIBUTE P_505 NUMERIC
@ATTRIBUTE P_506 NUMERIC
@ATTRIBUTE P_507 NUMERIC
@ATTRIBUTE P_508 NUMERIC
@ATTRIBUTE P_509 NUMERIC
@ATTRIBUTE P_510 NUMERIC
@ATTRIBUTE P_511 NUMERIC
@ATTRIBUTE P_512 NUMERIC
@ATTRIBUTE P_513 NUMERIC
@ATTRIBUTE P_514 NUMERIC
@ATTRIBUTE P_515 NUMERIC
@ATTRIBUTE P_516 NUMERIC
@ATTRIBUTE P_517 NUMERIC
@ATTRIBUTE P_518 NUMERIC
@ATTRIBUTE P_519 NUMERIC
@ATTRIBUTE P_520 NUMERIC
@ATTRIBUTE P_521 NUMERIC
@ATTRIBUTE P_522 NUMERIC
@ATTRIBUTE P_523 NUMERIC
@ATTRIBUTE P_524 NUMERIC
@ATTRIBUTE P_525 NUMERIC
@ATTRIBUTE P_526 NUMERIC
@ATTRIBUTE P_527 NUMERIC
@ATTRIBUTE P_528 NUMERIC
@ATTRIBUTE P_529 NUMERIC
@ATTRIBUTE P_530 NUMERIC
@ATTRIBUTE P_531 NUMERIC
@ATTRIBUTE P_532 NUMERIC
@ATTRIBUTE P_533 NUMERIC
@ATTRIBUTE P_534 NUMERIC
@ATTRIBUTE P_535 NUMERIC
@ATTRIBUTE P_536 NUMERIC
@ATTRIBUTE P_537 NUMERIC
@ATTRIBUTE P_538 NUMERIC
@ATTRIBUTE P_539 NUMERIC
@ATTRIBUTE P_540 NUMERIC
@ATTRIBUTE P_541 NUMERIC
@ATTRIBUTE P_542 NUMERIC
@ATTRIBUTE P_543 NUMERIC
@ATTRIBUTE P_544 NUMERIC
@ATTRIBUTE P_545 NUMERIC
@ATTRIBUTE P_546 NUMERIC
@ATTRIBUTE P_547 NUMERIC
@ATTRIBUTE P_548 NUMERIC
@ATTRIBUTE P_549 NUMERIC
@ATTRIBUTE P_550 NUMERIC
@ATTRIBUTE P_551 NUMERIC
@ATTRIBUTE P_552 NUMERIC
@ATTRIBUTE P_553 NUMERIC
@ATTRIBUTE P_554 NUMERIC
@ATTRIBUTE P_555 NUMERIC
@ATTRIBUTE P_556 NUMERIC
@ATTRIBUTE P_557 NUMERIC
@ATTRIBUTE P_558 NUMERIC
@ATTRIBUTE P_559 NUMERIC
@ATTRIBUTE P_560 NUMERIC
@ATTRIBUTE P_561 NUMERIC
@ATTRIBUTE P_562 NUMERIC
@ATTRIBUTE P_563 NUMERIC
@ATTRIBUTE P_564 NUMERIC
@ATTRIBUTE P_565 NUMERIC
@ATTRIBUTE P_566 NUMERIC
@ATTRIBUTE P_567 NUMERIC
@ATTRIBUTE P_568 NUMERIC
@ATTRIBUTE P_569 NUMERIC
@ATTRIBUTE P_570 NUMERIC
@ATTRIBUTE P_571 NUMERIC
@ATTRIBUTE P_572 NUMERIC
@ATTRIBUTE P_573 NUMERIC
@ATTRIBUTE P_574 NUMERIC
@ATTRIBUTE P_575 NUMERIC
@ATTRIBUTE P_576 NUMERIC
@ATTRIBUTE P_577 NUMERIC
@ATTRIBUTE P_578 NUMERIC
@ATTRIBUTE P_579 NUMERIC
@ATTRIBUTE P_580 NUMERIC
@ATTRIBUTE P_581 NUMERIC
@ATTRIBUTE P_582 NUMERIC
@ATTRIBUTE P_583 NUMERIC
@ATTRIBUTE P_584 NUMERIC
@ATTRIBUTE P_585 NUMERIC
@ATTRIBUTE P_586 NUMERIC
@ATTRIBUTE P_587 NUMERIC
@ATTRIBUTE P_588 NUMERIC
@ATTRIBUTE P_589 NUMERIC
@ATTRIBUTE P_590 NUMERIC
@ATTRIBUTE P_591 NUMERIC
@ATTRIBUTE P_592 NUMERIC
@ATTRIBUTE P_593 NUMERIC
@ATTRIBUTE P_594 NUMERIC
@ATTRIBUTE P_595 NUMERIC
@ATTRIBUTE P_596 NUMERIC
@ATTRIBUTE P_597 NUMERIC
@ATTRIBUTE P_598 NUMERIC
@ATTRIBUTE P_599 NUMERIC
@ATTRIBUTE P_600 NUMERIC
@ATTRIBUTE P_601 NUMERIC
@ATTRIBUTE P_602 NUMERIC
@ATTRIBUTE P_603 NUMERIC
@ATTRIBUTE P_604 NUMERIC
@ATTRIBUTE P_605 NUMERIC
@ATTRIBUTE P_606 NUMERIC
@ATTRIBUTE P_607 NUMERIC
@ATTRIBUTE P_608 NUMERIC
@ATTRIBUTE P_609 NUMERIC
@ATTRIBUTE P_610 NUMERIC
@ATTRIBUTE P_611 NUMERIC
@ATTRIBUTE P_612 NUMERIC
@ATTRIBUTE P_613 NUMERIC
@ATTRIBUTE P_614 NUMERIC
@ATTRIBUTE P_615 NUMERIC
@ATTRIBUTE P_616 NUMERIC
@ATTRIBUTE P_617 NUMERIC
@ATTRIBUTE P_618 NUMERIC
@ATTRIBUTE P_619 NUMERIC
@ATTRIBUTE P_620 NUMERIC
@ATTRIBUTE P_621 NUMERIC
@ATTRIBUTE P_622 NUMERIC
@ATTRIBUTE P_623 NUMERIC
@ATTRIBUTE P_624 NUMERIC
@ATTRIBUTE P_625 NUMERIC
@ATTRIBUTE P_626 NUMERIC
@ATTRIBUTE P_627 NUMERIC
@ATTRIBUTE P_628 NUMERIC
@ATTRIBUTE P_629 NUMERIC
@ATTRIBUTE P_630 NUMERIC
@ATTRIBUTE P_631 NUMERIC
@ATTRIBUTE P_632 NUMERIC
@ATTRIBUTE P_633 NUMERIC
@ATTRIBUTE P_634 NUMERIC
@ATTRIBUTE P_635 NUMERIC
@ATTRIBUTE P_636 NUMERIC
@ATTRIBUTE P_637 NUMERIC
@ATTRIBUTE P_638 NUMERIC
@ATTRIBUTE P_639 NUMERIC
@ATTRIBUTE P_640 NUMERIC
@ATTRIBUTE P_641 NUMERIC
@ATTRIBUTE P_642 NUMERIC
@ATTRIBUTE P_643 NUMERIC
@ATTRIBUTE P_644 NUMERIC
@ATTRIBUTE P_645 NUMERIC
@ATTRIBUTE P_646 NUMERIC
@ATTRIBUTE P_647 NUMERIC
@ATTRIBUTE P_648 NUMERIC
@ATTRIBUTE P_649 NUMERIC
@ATTRIBUTE P_650 NUMERIC
@ATTRIBUTE P_651 NUMERIC
@ATTRIBUTE P_652 NUMERIC
@ATTRIBUTE P_653 NUMERIC
@ATTRIBUTE P_654 NUMERIC
@ATTRIBUTE P_655 NUMERIC
@ATTRIBUTE P_656 NUMERIC
@ATTRIBUTE P_657 NUMERIC
@ATTRIBUTE P_658 NUMERIC
@ATTRIBUTE P_659 NUMERIC
@ATTRIBUTE P_660 NUMERIC
@ATTRIBUTE P_661 NUMERIC
@ATTRIBUTE P_662 NUMERIC
@ATTRIBUTE P_663 NUMERIC
@ATTRIBUTE P_664 NUMERIC
@ATTRIBUTE P_665 NUMERIC
@ATTRIBUTE P_666 NUMERIC
@ATTRIBUTE P_667 NUMERIC
@ATTRIBUTE P_668 NUMERIC
@ATTRIBUTE P_669 NUMERIC
@ATTRIBUTE P_670 NUMERIC
@ATTRIBUTE P_671 NUMERIC
@ATTRIBUTE P_672 NUMERIC
@ATTRIBUTE P_673 NUMERIC
@ATTRIBUTE P_674 NUMERIC
@ATTRIBUTE P_675 NUMERIC
@ATTRIBUTE P_676 NUMERIC
@ATTRIBUTE P_677 NUMERIC
@ATTRIBUTE P_678 NUMERIC
@ATTRIBUTE P_679 NUMERIC
@ATTRIBUTE P_680 NUMERIC
@ATTRIBUTE P_681 NUMERIC
@ATTRIBUTE P_682 NUMERIC
@ATTRIBUTE P_683 NUMERIC
@ATTRIBUTE P_684 NUMERIC
@ATTRIBUTE P_685 NUMERIC
@ATTRIBUTE P_686 NUMERIC
@ATTRIBUTE P_687 NUMERIC
@ATTRIBUTE P_688 NUMERIC
@ATTRIBUTE P_689 NUMERIC
@ATTRIBUTE P_690 NUMERIC
@ATTRIBUTE P_691 NUMERIC
@ATTRIBUTE P_692 NUMERIC
@ATTRIBUTE P_693 NUMERIC
@ATTRIBUTE P_694 NUMERIC
@ATTRIBUTE P_695 NUMERIC
@ATTRIBUTE P_696 NUMERIC
@ATTRIBUTE P_697 NUMERIC
@ATTRIBUTE P_698 NUMERIC
@ATTRIBUTE P_699 NUMERIC
@ATTRIBUTE P_700 NUMERIC
@ATTRIBUTE P_701 NUMERIC
@ATTRIBUTE P_702 NUMERIC
@ATTRIBUTE P_703 NUMERIC
@ATTRIBUTE P_704 NUMERIC
@ATTRIBUTE P_705 NUMERIC
@ATTRIBUTE P_706 NUMERIC
@ATTRIBUTE P_707 NUMERIC
@ATTRIBUTE P_708 NUMERIC
@ATTRIBUTE P_709 NUMERIC
@ATTRIBUTE P_710 NUMERIC
@ATTRIBUTE P_711 NUMERIC
@ATTRIBUTE P_712 NUMERIC
@ATTRIBUTE P_713 NUMERIC
@ATTRIBUTE P_714 NUMERIC
@ATTRIBUTE P_715 NUMERIC
@ATTRIBUTE P_716 NUMERIC
@ATTRIBUTE P_717 NUMERIC
@ATTRIBUTE P_718 NUMERIC
@ATTRIBUTE P_719 NUMERIC
@ATTRIBUTE P_720 NUMERIC
@ATTRIBUTE P_721 NUMERIC
@ATTRIBUTE P_722 NUMERIC
@ATTRIBUTE P_723 NUMERIC
@ATTRIBUTE P_724 NUMERIC
@ATTRIBUTE P_725 NUMERIC
@ATTRIBUTE P_726 NUMERIC
@ATTRIBUTE P_727 NUMERIC
@ATTRIBUTE P_728 NUMERIC
@ATTRIBUTE P_729 NUMERIC
@ATTRIBUTE P_730 NUMERIC
@ATTRIBUTE P_731 NUMERIC
@ATTRIBUTE P_732 NUMERIC
@ATTRIBUTE P_733 NUMERIC
@ATTRIBUTE P_734 NUMERIC
@ATTRIBUTE P_735 NUMERIC
@ATTRIBUTE P_736 NUMERIC
@ATTRIBUTE P_737 NUMERIC
@ATTRIBUTE P_738 NUMERIC
@ATTRIBUTE P_739 NUMERIC
@ATTRIBUTE P_740 NUMERIC
@ATTRIBUTE P_741 NUMERIC
@ATTRIBUTE P_742 NUMERIC
@ATTRIBUTE P_743 NUMERIC
@ATTRIBUTE P_744 NUMERIC
@ATTRIBUTE P_745 NUMERIC
@ATTRIBUTE P_746 NUMERIC
@ATTRIBUTE P_747 NUMERIC
@ATTRIBUTE P_748 NUMERIC
@ATTRIBUTE P_749 NUMERIC
@ATTRIBUTE P_750 NUMERIC
@ATTRIBUTE P_751 NUMERIC
@ATTRIBUTE P_752 NUMERIC
@ATTRIBUTE P_753 NUMERIC
@ATTRIBUTE P_754 NUMERIC
@ATTRIBUTE P_755 NUMERIC
@ATTRIBUTE P_756 NUMERIC
@ATTRIBUTE P_757 NUMERIC
@ATTRIBUTE P_758 NUMERIC
@ATTRIBUTE P_759 NUMERIC
@ATTRIBUTE P_760 NUMERIC

@ATTRIBUTE class {0,1,2,3}

@DATA
93 90 89 89 92 93 93 92 91 92 93 93 92 91 91 93 93 93 93 93 91 91 92 92 90 91 93 93 93 93 93 93 93 93 93 94 94 93 93 93 93 93 92 93 93 92 92 92 93 93 93 93 93 93 94 94 93 93 93 93 93 93 93 93 93 94 95 93 93 93 93 94 93 93 92 93 93 93 93 94 93 93 93 91 90 92 93 93 93 93 93 91 93 93 94 93 93 93 93 93 93 94 95 94 93 93 93 93 93 92 92 93 94 94 93 93 93 93 93 91 92 92 92 93 94 93 91 91 93 93 93 93 93 93 92 93 93 94 94 92 92 92 93 93 92 92 93 93 93 93 93 92 92 93 93 93 93 93 91 91 92 92 93 93 92 91 92 92 93 93 93 93 92 92 91 90 90 92 92 92 92 92 91 92 93 92 91 91 91 92 93 93 90 90 92 92 93 93 93 93 93 93 91 90 91 93 93 93 93 93 93 92 92 93 93 93 93 93 93 94 93 93 93 93 93 93 94 95 95 94 94 93 91 93 93 93 93 93 93 93 93 93 93 94 94 94 93 93 93 93 93 93 94 93 93 94 95 94 94 95 95 95 94 93 93 94 95 93 93 93 94 93 93 91 91 93 94 93 93 92 91 92 93 94 95 94 94 94 93 93 93 93 94 94 93 93 92 93 93 91 91 93 94 94 94 94 93 93 94 93 93 92 92 93 95 93 93 93 93 93 93 93 93 93 93 93 93 94 93 91 92 91 91 93 92 93 93 94 94 94 93 93 91 92 93 93 94 94 91 92 93 93 93 93 92 92 92 92 93 93 93 93 92 92 91 91 91 93 90 91 92 93 92 93 93 93 93 93 91 91 94 93 92 91 91 92 93 93 93 93 94 93 90 88 89 92 93 92 93 93 93 92 92 93 96 95 94 94 94 93 93 93 93 93 93 93 93 94 95 93 92 91 91 91 92 93 93 94 94 94 94 93 91 93 93 92 92 92 94 96 96 94 94 94 94 93 91 93 94 94 94 93 93 93 94 96 96 93 94 94 93 95 95 93 93 93 94 94 94 94 93 94 93 93 93 92 92 93 93 91 91 91 93 94 96 94 93 93 93 91 92 94 93 93 93 94 93 93 94 93 94 95 95 94 92 93 94 94 93 92 92 93 93 94 93 92 93 93 93 93 93 92 91 93 93 93 93 93 92 93 94 93 92 92 93 94 94 94 93 94 93 93 93 93 93 92 91 92 93 93 92 91 93 93 93 93 92 91 89 91 93 94 92 92 93 93 93 94 93 93 93 93 92 92 92 93 93 93 92 92 93 90 90 91 91 92 91 91 93 93 91 92 93 93 95 95 94 93 93 93 93 93 93 94 93 93 93 93 95 92 92 92 92 93 93 93 93 94 93 94 94 93 92 94 94 94 93 91 93 95 96 94 93 93 94 93 92 93 93 94 93 92 93 94 93 92 93 95 94 93 95 96 96 96 96 94 94 93 94 94 94 94 93 93 93 93 92 93 94 93 91 90 91 93 95 95 95 96 95 93 92 93 93 93 94 93 93 93 93 93 94 96 96 95 92 92 93 93 94 92 93 92 93 93 94 93 93 94 93 93 93 93 93 95 93 93 93 92 91 93 94 94 93 91 91 93 94 93 93 93 93 94 93 93 93 92 91 92 93 92 91 92 93 93 93 93 93 93 91 90 91 93 91 92 92 92 92 93 92 91 0
93 90 89 89 92 93 93 92 91 92 93 93 92 91 91 93 93 93 93 93 91 91 92 92 90 91 93 93 93 93 93 93 93 93 93 94 94 93 93 93 93 93 92 89 75 55 44 40 38 38 38 38 38 38 39 39 38 38 38 38 38 38 38 38 38 39 39 38 38 38 38 39 38 38 38 38 38 38 38 39 38 38 38 37 37 38 38 38 38 38 38 38 38 38 39 38 38 38 38 38 38 39 39 39 38 38 38 38 38 38 38 38 39 39 38 38 38 38 38 38 44 46 63 79 94 93 91 91 93 93 93 93 93 93 92 93 93 94 94 92 92 92 93 93 92 92 93 93 93 93 93 92 92 93 93 93 93 93 91 91 92 92 93 93 92 91 92 92 93 93 93 93 92 92 91 90 90 92 92 92 92 92 91 92 93 92 91 91 91 92 93 93 90 90 92 92 93 93 93 93 93 93 91 90 91 93 93 93 93 93 93 92 92 93 93 93 93 93 93 94 93 93 93 93 93 93 94 95 95 94 94 91 64 38 36 39 43 45 47 47 47 47 46 47 47 47 47 46 47 47 47 47 47 47 47 47 47 47 47 47 47 47 47 47 47 47 47 46 46 47 47 46 46 45 45 46 47 47 46 46 45 46 46 47 47 47 47 47 47 46 46 47 47 47 47 47 46 46 46 45 45 46 47 47 47 47 46 47 47 46 44 42 36 37 48 79 93 93 93 93 93 93 93 93 93 93 93 94 93 91 92 91 91 93 92 93 93 94 94 94 93 93 91 92 93 93 94 94 91 92 93 93 93 93 92 92 92 92 93 93 93 93 92 92 91 91 91 93 90 91 92 93 92 93 93 93 93 93 91 91 94 93 92 91 91 92 93 93 93 93 94 93 90 88 89 92 93 92 93 93 93 92 92 93 96 95 94 94 94 93 93 93 93 93 93 93 93 94 95 93 87 43 35 44 46 46 47 47 47 47 47 47 45 46 46 46 46 46 47 47 47 47 47 47 47 47 45 46 47 47 47 46 46 47 47 47 47 47 47 47 47 47 47 47 47 47 47 47 47 47 47 47 46 46 46 46 46 47 46 45 45 45 46 47 47 47 46 47 46 45 46 47 47 47 47 47 46 47 47 47 47 47 47 47 42 37 61 93 93 92 92 93 93 94 93 92 93 93 93 93 93 92 91 93 93 93 93 93 92 93 94 93 92 92 93 94 94 94 93 94 93 93 93 93 93 92 91 92 93 93 92 91 93 93 93 93 92 91 89 91 93 94 92 92 93 93 93 94 93 93 93 93 92 92 92 93 93 93 92 92 93 90 90 91 91 92 91 91 93 93 91 92 93 93 95 95 94 93 93 93 93 93 93 94 93 93 93 93 95 69 38 43 46 46 46 46 47 47 46 47 47 46 46 47 47 47 47 45 46 47 47 47 46 47 47 47 46 46 47 47 47 46 46 47 47 46 47 47 47 47 47 47 47 47 47 47 47 47 47 47 47 47 46 46 46 46 46 47 47 47 45 44 45 47 47 47 47 47 47 47 46 46 47 47 47 47 46 46 47 47 47 47 47 47 46 46 35 53 92 92 93 92 93 93 94 93 93 94 93 93 93 93 93 95 93 93 93 92 91 93 94 94 93 91 91 93 94 93 93 93 93 94 93 93 93 92 91 92 93 92 91 92 93 93 93 93 93 93 91 90 91 93 91 92 92 92 92 93 92 91 1
93 90 89 89 92 93 93 92 91 92 93 93 92 91 91 93 93 93 93 93 91 91 92 92 90 91 93 93 93 93 93 93 93 93 93 94 94 93 90 75 56 44 40 38 38 38 38 38 38 38 38 38 38 38 39 39 38 38 38 38 38 38 38 38 38 39 39 38 38 38 38 39 38 38 38 38 38 38 38 39 38 38 38 37 37 38 38 38 38 38 38 38 38 38 39 38 38 38 38 38 38 39 39 39 38 38 38 38 38 38 38 38 39 39 38 38 38 38 38 38 38 38 38 38 39 38 43 45 64 80 93 93 93 93 92 93 93 94 94 92 92 92 93 93 92 92 93 93 93 93 93 92 92 93 93 93 93 93 91 91 92 92 93 93 92 91 92 92 93 93 93 93 92 92 91 90 90 92 92 92 92 92 91 92 93 92 91 91 91 92 93 93 90 90 92 92 93 93 93 93 93 93 91 90 91 93 93 93 93 93 93 92 92 93 93 93 93 93 93 94 93 93 93 93 93 93 92 67 39 37 40 43 44 46 46 46 46 47 47 47 47 47 46 47 47 47 47 46 47 47 47 47 47 47 47 47 47 47 47 47 47 47 47 47 47 47 47 46 46 47 47 46 46 45 45 46 47 47 46 46 45 46 46 47 47 47 47 47 47 46 46 47 47 47 47 47 46 46 46 45 45 46 47 47 47 47 46 47 47 46 47 46 46 46 47 47 43 42 36 37 47 78 93 93 93 93 93 94 93 91 92 91 91 93 92 93 93 94 94 94 93 93 91 92 93 93 94 94 91 92 93 93 93 93 92 92 92 92 93 93 93 93 92 92 91 91 91 93 90 91 92 93 92 93 93 93 93 93 91 91 94 93 92 91 91 92 93 93 93 93 94 93 90 88 89 92 93 92 93 93 93 92 92 93 96 95 94 94 94 93 93 93 93 93 93 88 44 36 47 46 46 45 45 45 46 46 47 47 47 47 47 47 45 46 46 46 46 46 47 47 47 47 47 47 47 47 45 46 47 47 47 46 46 47 47 47 47 47 47 47 47 47 47 47 47 47 47 47 47 47 47 47 46 46 46 46 46 47 46 45 45 45 46 47 47 47 46 47 46 45 46 47 47 47 47 47 46 47 47 47 47 47 47 47 46 46 47 47 46 46 42 37 61 93 93 92 93 93 93 93 93 92 91 93 93 93 93 93 92 93 94 93 92 92 93 94 94 94 93 94 93 93 93 93 93 92 91 92 93 93 92 91 93 93 93 93 92 91 89 91 93 94 92 92 93 93 93 94 93 93 93 93 92 92 92 93 93 93 92 92 93 90 90 91 91 92 91 91 93 93 91 92 93 93 95 95 94 93 93 93 93 93 93 94 70 38 43 46 47 46 46 46 46 46 46 46 47 47 46 47 47 46 46 47 47 47 47 45 46 47 47 47 46 47 47 47 46 46 47 47 47 46 46 47 47 46 47 47 47 47 47 47 47 47 47 47 47 47 47 47 47 47 46 46 46 46 46 47 47 47 45 44 45 47 47 47 47 47 47 47 46 46 47 47 47 47 46 46 47 47 47 47 47 47 46 46 46 47 47 46 46 46 35 53 92 93 93 94 93 93 93 93 93 95 93 93 93 92 91 93 94 94 93 91 91 93 94 93 93 93 93 94 93 93 93 92 91 92 93 92 91 92 93 93 93 93 93 93 91 90 91 93 91 92 92 92 92 93 92 91 2
93 90 89 89 92 93 93 92 91 92 93 93 92 91 91 93 93 93 93 93 91 91 92 92 90 91 93 93 93 93 93 89 75 55 44 41 39 38 38 38 38 38 38 38 38 38 38 38 38 38 38 38 38 38 39 39 38 38 38 38 38 38 38 38 38 39 39 38 38 38 38 39 38 38 38 38 38 38 38 39 38 38 38 37 37 38 38 38 38 38 38 38 38 38 39 38 38 38 38 38 38 39 39 39 38 38 38 38 38 38 38 38 39 39 38 38 38 38 38 38 38 38 38 38 39 38 38 38 38 38 38 38 38 44 46 64 80 94 94 92 92 92 93 93 92 92 93 93 93 93 93 92 92 93 93 93 93 93 91 91 92 92 93 93 92 91 92 92 93 93 93 93 92 92 91 90 90 92 92 92 92 92 91 92 93 92 91 91 91 92 93 93 90 90 92 92 93 93 93 93 93 93 91 90 91 93 93 93 93 93 93 92 92 93 93 93 93 93 93 92 66 38 36 40 44 45 47 47 47 47 47 46 45 46 46 46 46 47 47 47 47 47 46 47 47 47 47 46 47 47 47 47 47 47 47 47 47 47 47 47 47 47 47 47 47 47 47 46 46 47 47 46 46 45 45 46 47 47 46 46 45 46 46 47 47 47 47 47 47 46 46 47 47 47 47 47 46 46 46 45 45 46 47 47 47 47 46 47 47 46 47 46 46 46 47 47 46 46 46 46 46 46 46 44 42 36 38 47 79 91 92 91 91 93 92 93 93 94 94 94 93 93 91 92 93 93 94 94 91 92 93 93 93 93 92 92 92 92 93 93 93 93 92 92 91 91 91 93 90 91 92 93 92 93 93 93 93 93 91 91 94 93 92 91 91 92 93 93 93 93 94 93 90 88 89 92 93 92 93 93 93 92 92 93 96 95 94 94 90 44 35 45 46 47 47 46 47 47 47 46 46 45 45 45 46 46 47 47 47 47 47 47 45 46 46 46 46 46 47 47 47 47 47 47 47 47 45 46 47 47 47 46 46 47 47 47 47 47 47 47 47 47 47 47 47 47 47 47 47 47 47 47 46 46 46 46 46 47 46 45 45 45 46 47 47 47 46 47 46 45 46 47 47 47 47 47 46 47 47 47 47 47 47 47 46 46 47 47 46 46 46 46 47 47 46 46 46 42 37 61 92 92 91 93 93 93 93 93 92 93 94 93 92 92 93 94 94 94 93 94 93 93 93 93 93 92 91 92 93 93 92 91 93 93 93 93 92 91 89 91 93 94 92 92 93 93 93 94 93 93 93 93 92 92 92 93 93 93 92 92 93 90 90 91 91 92 91 91 93 93 91 92 93 93 95 95 94 70 38 44 46 46 47 47 47 46 46 46 47 46 46 46 46 46 46 46 47 47 46 47 47 46 46 47 47 47 47 45 46 47 47 47 46 47 47 47 46 46 47 47 47 46 46 47 47 46 47 47 47 47 47 47 47 47 47 47 47 47 47 47 47 47 46 46 46 46 46 47 47 47 45 44 45 47 47 47 47 47 47 47 46 46 47 47 47 47 46 46 47 47 47 47 47 47 46 46 46 47 47 46 46 46 46 47 47 47 47 47 46 35 53 90 93 95 93 93 93 92 91 93 94 94 93 91 91 93 94 93 93 93 93 94 93 93 93 92 91 92 93 92 91 92 93 93 93 93 93 93 91 90 91 93 91 92 92 92 92 93 92 91 3
