
Options: -D -Q weka.classifiers.bayes.net.search.local.K2 -- -P 1 -S BAYES -E weka.classifiers.bayes.net.estimate.SimpleEstimator -- -A 0.5 

Bayes Network Classifier
not using ADTree
#attributes=757 #classindex=756
Network structure (nodes followed by parents)
P_1(1): class 
P_2(1): class 
P_3(1): class 
P_4(1): class 
P_5(1): class 
P_6(1): class 
P_7(1): class 
P_8(1): class 
P_9(1): class 
P_10(1): class 
P_11(1): class 
P_12(1): class 
P_13(1): class 
P_14(1): class 
P_15(1): class 
P_16(1): class 
P_17(1): class 
P_18(1): class 
P_19(1): class 
P_20(1): class 
P_21(1): class 
P_22(1): class 
P_23(1): class 
P_24(1): class 
P_25(1): class 
P_26(1): class 
P_27(1): class 
P_28(1): class 
P_29(1): class 
P_30(1): class 
P_31(1): class 
P_32(1): class 
P_33(1): class 
P_34(1): class 
P_35(1): class 
P_36(1): class 
P_37(1): class 
P_38(1): class 
P_39(1): class 
P_40(1): class 
P_41(1): class 
P_42(1): class 
P_43(1): class 
P_44(1): class 
P_45(1): class 
P_46(1): class 
P_47(1): class 
P_48(1): class 
P_49(1): class 
P_50(1): class 
P_51(1): class 
P_52(1): class 
P_53(1): class 
P_54(1): class 
P_55(1): class 
P_56(1): class 
P_57(1): class 
P_58(1): class 
P_59(1): class 
P_60(1): class 
P_61(1): class 
P_62(1): class 
P_63(1): class 
P_64(1): class 
P_65(1): class 
P_66(1): class 
P_67(1): class 
P_68(1): class 
P_69(1): class 
P_70(1): class 
P_71(1): class 
P_72(1): class 
P_73(1): class 
P_74(1): class 
P_75(1): class 
P_76(1): class 
P_77(1): class 
P_78(1): class 
P_79(1): class 
P_80(1): class 
P_81(1): class 
P_82(1): class 
P_83(1): class 
P_84(1): class 
P_85(1): class 
P_86(1): class 
P_87(1): class 
P_88(1): class 
P_89(1): class 
P_90(1): class 
P_91(1): class 
P_92(1): class 
P_93(1): class 
P_94(1): class 
P_95(1): class 
P_96(4): class 
P_97(6): class 
P_98(11): class 
P_99(10): class 
P_100(6): class 
P_101(10): class 
P_102(14): class 
P_103(7): class 
P_104(9): class 
P_105(6): class 
P_106(1): class 
P_107(1): class 
P_108(1): class 
P_109(1): class 
P_110(1): class 
P_111(1): class 
P_112(1): class 
P_113(1): class 
P_114(5): class 
P_115(6): class 
P_116(3): class 
P_117(7): class 
P_118(5): class 
P_119(3): class 
P_120(2): class 
P_121(4): class 
P_122(7): class 
P_123(6): class 
P_124(1): class 
P_125(1): class 
P_126(1): class 
P_127(1): class 
P_128(1): class 
P_129(1): class 
P_130(1): class 
P_131(1): class 
P_132(9): class 
P_133(3): class 
P_134(4): class 
P_135(11): class 
P_136(5): class 
P_137(5): class 
P_138(9): class 
P_139(9): class 
P_140(4): class 
P_141(4): class 
P_142(1): class 
P_143(1): class 
P_144(1): class 
P_145(1): class 
P_146(1): class 
P_147(1): class 
P_148(1): class 
P_149(1): class 
P_150(6): class 
P_151(3): class 
P_152(11): class 
P_153(5): class 
P_154(1): class 
P_155(1): class 
P_156(6): class 
P_157(6): class 
P_158(5): class 
P_159(6): class 
P_160(1): class 
P_161(1): class 
P_162(1): class 
P_163(1): class 
P_164(1): class 
P_165(1): class 
P_166(1): class 
P_167(1): class 
P_168(3): class 
P_169(4): class 
P_170(8): class 
P_171(5): class 
P_172(5): class 
P_173(5): class 
P_174(8): class 
P_175(5): class 
P_176(6): class 
P_177(5): class 
P_178(1): class 
P_179(1): class 
P_180(1): class 
P_181(1): class 
P_182(1): class 
P_183(1): class 
P_184(1): class 
P_185(1): class 
P_186(3): class 
P_187(10): class 
P_188(3): class 
P_189(3): class 
P_190(9): class 
P_191(8): class 
P_192(3): class 
P_193(5): class 
P_194(11): class 
P_195(3): class 
P_196(1): class 
P_197(1): class 
P_198(1): class 
P_199(1): class 
P_200(1): class 
P_201(1): class 
P_202(1): class 
P_203(1): class 
P_204(3): class 
P_205(6): class 
P_206(3): class 
P_207(3): class 
P_208(3): class 
P_209(4): class 
P_210(3): class 
P_211(5): class 
P_212(9): class 
P_213(6): class 
P_214(1): class 
P_215(1): class 
P_216(1): class 
P_217(1): class 
P_218(1): class 
P_219(1): class 
P_220(1): class 
P_221(1): class 
P_222(3): class 
P_223(3): class 
P_224(7): class 
P_225(6): class 
P_226(4): class 
P_227(5): class 
P_228(6): class 
P_229(7): class 
P_230(5): class 
P_231(10): class 
P_232(6): class 
P_233(1): class 
P_234(1): class 
P_235(1): class 
P_236(1): class 
P_237(1): class 
P_238(1): class 
P_239(6): class 
P_240(6): class 
P_241(6): class 
P_242(5): class 
P_243(6): class 
P_244(5): class 
P_245(6): class 
P_246(4): class 
P_247(5): class 
P_248(7): class 
P_249(8): class 
P_250(5): class 
P_251(1): class 
P_252(1): class 
P_253(1): class 
P_254(1): class 
P_255(1): class 
P_256(1): class 
P_257(9): class 
P_258(3): class 
P_259(5): class 
P_260(6): class 
P_261(3): class 
P_262(3): class 
P_263(4): class 
P_264(3): class 
P_265(10): class 
P_266(6): class 
P_267(5): class 
P_268(7): class 
P_269(1): class 
P_270(1): class 
P_271(1): class 
P_272(1): class 
P_273(1): class 
P_274(1): class 
P_275(9): class 
P_276(6): class 
P_277(5): class 
P_278(7): class 
P_279(6): class 
P_280(4): class 
P_281(5): class 
P_282(7): class 
P_283(9): class 
P_284(6): class 
P_285(6): class 
P_286(6): class 
P_287(1): class 
P_288(1): class 
P_289(1): class 
P_290(1): class 
P_291(1): class 
P_292(1): class 
P_293(5): class 
P_294(7): class 
P_295(7): class 
P_296(7): class 
P_297(1): class 
P_298(4): class 
P_299(1): class 
P_300(5): class 
P_301(12): class 
P_302(7): class 
P_303(4): class 
P_304(6): class 
P_305(1): class 
P_306(1): class 
P_307(1): class 
P_308(1): class 
P_309(1): class 
P_310(1): class 
P_311(4): class 
P_312(11): class 
P_313(2): class 
P_314(8): class 
P_315(6): class 
P_316(3): class 
P_317(5): class 
P_318(11): class 
P_319(6): class 
P_320(6): class 
P_321(7): class 
P_322(7): class 
P_323(1): class 
P_324(1): class 
P_325(1): class 
P_326(1): class 
P_327(1): class 
P_328(1): class 
P_329(1): class 
P_330(9): class 
P_331(3): class 
P_332(3): class 
P_333(6): class 
P_334(7): class 
P_335(8): class 
P_336(2): class 
P_337(4): class 
P_338(8): class 
P_339(8): class 
P_340(1): class 
P_341(1): class 
P_342(1): class 
P_343(1): class 
P_344(1): class 
P_345(1): class 
P_346(1): class 
P_347(1): class 
P_348(4): class 
P_349(8): class 
P_350(7): class 
P_351(6): class 
P_352(3): class 
P_353(13): class 
P_354(11): class 
P_355(8): class 
P_356(5): class 
P_357(6): class 
P_358(1): class 
P_359(1): class 
P_360(1): class 
P_361(1): class 
P_362(1): class 
P_363(1): class 
P_364(1): class 
P_365(1): class 
P_366(1): class 
P_367(1): class 
P_368(1): class 
P_369(1): class 
P_370(1): class 
P_371(1): class 
P_372(1): class 
P_373(1): class 
P_374(1): class 
P_375(1): class 
P_376(1): class 
P_377(1): class 
P_378(1): class 
P_379(1): class 
P_380(1): class 
P_381(1): class 
P_382(1): class 
P_383(1): class 
P_384(1): class 
P_385(1): class 
P_386(1): class 
P_387(1): class 
P_388(1): class 
P_389(1): class 
P_390(1): class 
P_391(1): class 
P_392(1): class 
P_393(1): class 
P_394(1): class 
P_395(1): class 
P_396(1): class 
P_397(1): class 
P_398(1): class 
P_399(1): class 
P_400(1): class 
P_401(1): class 
P_402(1): class 
P_403(1): class 
P_404(1): class 
P_405(3): class 
P_406(3): class 
P_407(3): class 
P_408(1): class 
P_409(1): class 
P_410(1): class 
P_411(1): class 
P_412(1): class 
P_413(1): class 
P_414(1): class 
P_415(1): class 
P_416(1): class 
P_417(1): class 
P_418(1): class 
P_419(1): class 
P_420(1): class 
P_421(1): class 
P_422(1): class 
P_423(4): class 
P_424(4): class 
P_425(4): class 
P_426(1): class 
P_427(1): class 
P_428(1): class 
P_429(1): class 
P_430(1): class 
P_431(1): class 
P_432(1): class 
P_433(1): class 
P_434(1): class 
P_435(1): class 
P_436(1): class 
P_437(1): class 
P_438(1): class 
P_439(3): class 
P_440(4): class 
P_441(4): class 
P_442(3): class 
P_443(4): class 
P_444(4): class 
P_445(3): class 
P_446(1): class 
P_447(1): class 
P_448(1): class 
P_449(1): class 
P_450(1): class 
P_451(1): class 
P_452(1): class 
P_453(1): class 
P_454(1): class 
P_455(1): class 
P_456(1): class 
P_457(4): class 
P_458(4): class 
P_459(3): class 
P_460(3): class 
P_461(3): class 
P_462(4): class 
P_463(4): class 
P_464(1): class 
P_465(1): class 
P_466(1): class 
P_467(1): class 
P_468(1): class 
P_469(1): class 
P_470(1): class 
P_471(1): class 
P_472(1): class 
P_473(1): class 
P_474(3): class 
P_475(3): class 
P_476(4): class 
P_477(3): class 
P_478(3): class 
P_479(3): class 
P_480(4): class 
P_481(3): class 
P_482(3): class 
P_483(1): class 
P_484(1): class 
P_485(1): class 
P_486(1): class 
P_487(1): class 
P_488(1): class 
P_489(3): class 
P_490(3): class 
P_491(4): class 
P_492(4): class 
P_493(4): class 
P_494(1): class 
P_495(3): class 
P_496(3): class 
P_497(3): class 
P_498(1): class 
P_499(4): class 
P_500(4): class 
P_501(4): class 
P_502(3): class 
P_503(1): class 
P_504(1): class 
P_505(1): class 
P_506(1): class 
P_507(1): class 
P_508(4): class 
P_509(4): class 
P_510(3): class 
P_511(1): class 
P_512(1): class 
P_513(1): class 
P_514(4): class 
P_515(1): class 
P_516(1): class 
P_517(1): class 
P_518(3): class 
P_519(4): class 
P_520(4): class 
P_521(3): class 
P_522(1): class 
P_523(1): class 
P_524(1): class 
P_525(3): class 
P_526(4): class 
P_527(2): class 
P_528(3): class 
P_529(3): class 
P_530(1): class 
P_531(1): class 
P_532(3): class 
P_533(1): class 
P_534(1): class 
P_535(3): class 
P_536(3): class 
P_537(2): class 
P_538(4): class 
P_539(3): class 
P_540(1): class 
P_541(1): class 
P_542(1): class 
P_543(4): class 
P_544(3): class 
P_545(2): class 
P_546(2): class 
P_547(2): class 
P_548(3): class 
P_549(3): class 
P_550(2): class 
P_551(3): class 
P_552(3): class 
P_553(2): class 
P_554(2): class 
P_555(2): class 
P_556(3): class 
P_557(4): class 
P_558(1): class 
P_559(1): class 
P_560(1): class 
P_561(4): class 
P_562(3): class 
P_563(3): class 
P_564(2): class 
P_565(2): class 
P_566(1): class 
P_567(1): class 
P_568(3): class 
P_569(1): class 
P_570(1): class 
P_571(2): class 
P_572(2): class 
P_573(3): class 
P_574(3): class 
P_575(4): class 
P_576(1): class 
P_577(1): class 
P_578(1): class 
P_579(4): class 
P_580(4): class 
P_581(3): class 
P_582(2): class 
P_583(3): class 
P_584(1): class 
P_585(3): class 
P_586(1): class 
P_587(3): class 
P_588(1): class 
P_589(3): class 
P_590(2): class 
P_591(3): class 
P_592(4): class 
P_593(4): class 
P_594(1): class 
P_595(1): class 
P_596(1): class 
P_597(1): class 
P_598(4): class 
P_599(4): class 
P_600(4): class 
P_601(1): class 
P_602(3): class 
P_603(3): class 
P_604(3): class 
P_605(3): class 
P_606(3): class 
P_607(1): class 
P_608(4): class 
P_609(4): class 
P_610(4): class 
P_611(1): class 
P_612(1): class 
P_613(1): class 
P_614(1): class 
P_615(2): class 
P_616(1): class 
P_617(4): class 
P_618(3): class 
P_619(4): class 
P_620(3): class 
P_621(3): class 
P_622(2): class 
P_623(3): class 
P_624(3): class 
P_625(4): class 
P_626(3): class 
P_627(4): class 
P_628(3): class 
P_629(1): class 
P_630(1): class 
P_631(1): class 
P_632(1): class 
P_633(1): class 
P_634(1): class 
P_635(1): class 
P_636(1): class 
P_637(1): class 
P_638(4): class 
P_639(2): class 
P_640(2): class 
P_641(2): class 
P_642(4): class 
P_643(1): class 
P_644(1): class 
P_645(1): class 
P_646(1): class 
P_647(1): class 
P_648(1): class 
P_649(1): class 
P_650(1): class 
P_651(1): class 
P_652(1): class 
P_653(4): class 
P_654(3): class 
P_655(4): class 
P_656(3): class 
P_657(3): class 
P_658(2): class 
P_659(3): class 
P_660(3): class 
P_661(4): class 
P_662(3): class 
P_663(3): class 
P_664(1): class 
P_665(1): class 
P_666(1): class 
P_667(1): class 
P_668(1): class 
P_669(1): class 
P_670(1): class 
P_671(3): class 
P_672(2): class 
P_673(2): class 
P_674(3): class 
P_675(1): class 
P_676(1): class 
P_677(1): class 
P_678(3): class 
P_679(2): class 
P_680(2): class 
P_681(3): class 
P_682(1): class 
P_683(1): class 
P_684(1): class 
P_685(1): class 
P_686(1): class 
P_687(1): class 
P_688(1): class 
P_689(1): class 
P_690(1): class 
P_691(1): class 
P_692(1): class 
P_693(1): class 
P_694(3): class 
P_695(1): class 
P_696(1): class 
P_697(1): class 
P_698(1): class 
P_699(1): class 
P_700(1): class 
P_701(1): class 
P_702(1): class 
P_703(1): class 
P_704(1): class 
P_705(1): class 
P_706(1): class 
P_707(1): class 
P_708(1): class 
P_709(1): class 
P_710(1): class 
P_711(1): class 
P_712(1): class 
P_713(1): class 
P_714(1): class 
P_715(1): class 
P_716(1): class 
P_717(1): class 
P_718(1): class 
P_719(1): class 
P_720(1): class 
P_721(1): class 
P_722(1): class 
P_723(1): class 
P_724(1): class 
P_725(1): class 
P_726(1): class 
P_727(1): class 
P_728(1): class 
P_729(1): class 
P_730(1): class 
P_731(1): class 
P_732(1): class 
P_733(1): class 
P_734(1): class 
P_735(1): class 
P_736(1): class 
P_737(1): class 
P_738(1): class 
P_739(1): class 
P_740(1): class 
P_741(1): class 
P_742(1): class 
P_743(1): class 
P_744(1): class 
P_745(1): class 
P_746(1): class 
P_747(1): class 
P_748(1): class 
P_749(1): class 
P_750(1): class 
P_751(1): class 
P_752(1): class 
P_753(1): class 
P_754(1): class 
P_755(1): class 
P_756(1): class 
class(52): 
LogScore Bayes: -22774.892468969265
LogScore BDeu: -334290.2733419329
LogScore MDL: -189042.35074344126
LogScore ENTROPY: -75936.02367724814
LogScore AIC: -133187.02367724015


Time taken to build model: 0.34 seconds
Time taken to test model on training data: 0.47 seconds

=== Error on training data ===

Correctly Classified Instances          52              100      %
Incorrectly Classified Instances         0                0      %
Kappa statistic                          1     
Mean absolute error                      0     
Root mean squared error                  0     
Relative absolute error                  0      %
Root relative squared error              0      %
Total Number of Instances               52     


=== Confusion Matrix ===

  a  b  c  d  e  f  g  h  i  j  k  l  m  n  o  p  q  r  s  t  u  v  w  x  y  z aa ab ac ad ae af ag ah ai aj ak al am an ao ap aq ar as at au av aw ax ay az   <-- classified as
  1  0  0  0  0  0  0  0  0  0  0  0  0  0  0  0  0  0  0  0  0  0  0  0  0  0  0  0  0  0  0  0  0  0  0  0  0  0  0  0  0  0  0  0  0  0  0  0  0  0  0  0 |  a = 1
  0  1  0  0  0  0  0  0  0  0  0  0  0  0  0  0  0  0  0  0  0  0  0  0  0  0  0  0  0  0  0  0  0  0  0  0  0  0  0  0  0  0  0  0  0  0  0  0  0  0  0  0 |  b = 2
  0  0  1  0  0  0  0  0  0  0  0  0  0  0  0  0  0  0  0  0  0  0  0  0  0  0  0  0  0  0  0  0  0  0  0  0  0  0  0  0  0  0  0  0  0  0  0  0  0  0  0  0 |  c = 3
  0  0  0  1  0  0  0  0  0  0  0  0  0  0  0  0  0  0  0  0  0  0  0  0  0  0  0  0  0  0  0  0  0  0  0  0  0  0  0  0  0  0  0  0  0  0  0  0  0  0  0  0 |  d = 4
  0  0  0  0  1  0  0  0  0  0  0  0  0  0  0  0  0  0  0  0  0  0  0  0  0  0  0  0  0  0  0  0  0  0  0  0  0  0  0  0  0  0  0  0  0  0  0  0  0  0  0  0 |  e = 5
  0  0  0  0  0  1  0  0  0  0  0  0  0  0  0  0  0  0  0  0  0  0  0  0  0  0  0  0  0  0  0  0  0  0  0  0  0  0  0  0  0  0  0  0  0  0  0  0  0  0  0  0 |  f = 6
  0  0  0  0  0  0  1  0  0  0  0  0  0  0  0  0  0  0  0  0  0  0  0  0  0  0  0  0  0  0  0  0  0  0  0  0  0  0  0  0  0  0  0  0  0  0  0  0  0  0  0  0 |  g = 7
  0  0  0  0  0  0  0  1  0  0  0  0  0  0  0  0  0  0  0  0  0  0  0  0  0  0  0  0  0  0  0  0  0  0  0  0  0  0  0  0  0  0  0  0  0  0  0  0  0  0  0  0 |  h = 8
  0  0  0  0  0  0  0  0  1  0  0  0  0  0  0  0  0  0  0  0  0  0  0  0  0  0  0  0  0  0  0  0  0  0  0  0  0  0  0  0  0  0  0  0  0  0  0  0  0  0  0  0 |  i = 9
  0  0  0  0  0  0  0  0  0  1  0  0  0  0  0  0  0  0  0  0  0  0  0  0  0  0  0  0  0  0  0  0  0  0  0  0  0  0  0  0  0  0  0  0  0  0  0  0  0  0  0  0 |  j = 10
  0  0  0  0  0  0  0  0  0  0  1  0  0  0  0  0  0  0  0  0  0  0  0  0  0  0  0  0  0  0  0  0  0  0  0  0  0  0  0  0  0  0  0  0  0  0  0  0  0  0  0  0 |  k = 11
  0  0  0  0  0  0  0  0  0  0  0  1  0  0  0  0  0  0  0  0  0  0  0  0  0  0  0  0  0  0  0  0  0  0  0  0  0  0  0  0  0  0  0  0  0  0  0  0  0  0  0  0 |  l = 12
  0  0  0  0  0  0  0  0  0  0  0  0  1  0  0  0  0  0  0  0  0  0  0  0  0  0  0  0  0  0  0  0  0  0  0  0  0  0  0  0  0  0  0  0  0  0  0  0  0  0  0  0 |  m = 13
  0  0  0  0  0  0  0  0  0  0  0  0  0  1  0  0  0  0  0  0  0  0  0  0  0  0  0  0  0  0  0  0  0  0  0  0  0  0  0  0  0  0  0  0  0  0  0  0  0  0  0  0 |  n = 14
  0  0  0  0  0  0  0  0  0  0  0  0  0  0  1  0  0  0  0  0  0  0  0  0  0  0  0  0  0  0  0  0  0  0  0  0  0  0  0  0  0  0  0  0  0  0  0  0  0  0  0  0 |  o = 15
  0  0  0  0  0  0  0  0  0  0  0  0  0  0  0  1  0  0  0  0  0  0  0  0  0  0  0  0  0  0  0  0  0  0  0  0  0  0  0  0  0  0  0  0  0  0  0  0  0  0  0  0 |  p = 16
  0  0  0  0  0  0  0  0  0  0  0  0  0  0  0  0  1  0  0  0  0  0  0  0  0  0  0  0  0  0  0  0  0  0  0  0  0  0  0  0  0  0  0  0  0  0  0  0  0  0  0  0 |  q = 17
  0  0  0  0  0  0  0  0  0  0  0  0  0  0  0  0  0  1  0  0  0  0  0  0  0  0  0  0  0  0  0  0  0  0  0  0  0  0  0  0  0  0  0  0  0  0  0  0  0  0  0  0 |  r = 18
  0  0  0  0  0  0  0  0  0  0  0  0  0  0  0  0  0  0  1  0  0  0  0  0  0  0  0  0  0  0  0  0  0  0  0  0  0  0  0  0  0  0  0  0  0  0  0  0  0  0  0  0 |  s = 19
  0  0  0  0  0  0  0  0  0  0  0  0  0  0  0  0  0  0  0  1  0  0  0  0  0  0  0  0  0  0  0  0  0  0  0  0  0  0  0  0  0  0  0  0  0  0  0  0  0  0  0  0 |  t = 20
  0  0  0  0  0  0  0  0  0  0  0  0  0  0  0  0  0  0  0  0  1  0  0  0  0  0  0  0  0  0  0  0  0  0  0  0  0  0  0  0  0  0  0  0  0  0  0  0  0  0  0  0 |  u = 21
  0  0  0  0  0  0  0  0  0  0  0  0  0  0  0  0  0  0  0  0  0  1  0  0  0  0  0  0  0  0  0  0  0  0  0  0  0  0  0  0  0  0  0  0  0  0  0  0  0  0  0  0 |  v = 22
  0  0  0  0  0  0  0  0  0  0  0  0  0  0  0  0  0  0  0  0  0  0  1  0  0  0  0  0  0  0  0  0  0  0  0  0  0  0  0  0  0  0  0  0  0  0  0  0  0  0  0  0 |  w = 23
  0  0  0  0  0  0  0  0  0  0  0  0  0  0  0  0  0  0  0  0  0  0  0  1  0  0  0  0  0  0  0  0  0  0  0  0  0  0  0  0  0  0  0  0  0  0  0  0  0  0  0  0 |  x = 24
  0  0  0  0  0  0  0  0  0  0  0  0  0  0  0  0  0  0  0  0  0  0  0  0  1  0  0  0  0  0  0  0  0  0  0  0  0  0  0  0  0  0  0  0  0  0  0  0  0  0  0  0 |  y = 25
  0  0  0  0  0  0  0  0  0  0  0  0  0  0  0  0  0  0  0  0  0  0  0  0  0  1  0  0  0  0  0  0  0  0  0  0  0  0  0  0  0  0  0  0  0  0  0  0  0  0  0  0 |  z = 26
  0  0  0  0  0  0  0  0  0  0  0  0  0  0  0  0  0  0  0  0  0  0  0  0  0  0  1  0  0  0  0  0  0  0  0  0  0  0  0  0  0  0  0  0  0  0  0  0  0  0  0  0 | aa = 27
  0  0  0  0  0  0  0  0  0  0  0  0  0  0  0  0  0  0  0  0  0  0  0  0  0  0  0  1  0  0  0  0  0  0  0  0  0  0  0  0  0  0  0  0  0  0  0  0  0  0  0  0 | ab = 28
  0  0  0  0  0  0  0  0  0  0  0  0  0  0  0  0  0  0  0  0  0  0  0  0  0  0  0  0  1  0  0  0  0  0  0  0  0  0  0  0  0  0  0  0  0  0  0  0  0  0  0  0 | ac = 29
  0  0  0  0  0  0  0  0  0  0  0  0  0  0  0  0  0  0  0  0  0  0  0  0  0  0  0  0  0  1  0  0  0  0  0  0  0  0  0  0  0  0  0  0  0  0  0  0  0  0  0  0 | ad = 30
  0  0  0  0  0  0  0  0  0  0  0  0  0  0  0  0  0  0  0  0  0  0  0  0  0  0  0  0  0  0  1  0  0  0  0  0  0  0  0  0  0  0  0  0  0  0  0  0  0  0  0  0 | ae = 31
  0  0  0  0  0  0  0  0  0  0  0  0  0  0  0  0  0  0  0  0  0  0  0  0  0  0  0  0  0  0  0  1  0  0  0  0  0  0  0  0  0  0  0  0  0  0  0  0  0  0  0  0 | af = 32
  0  0  0  0  0  0  0  0  0  0  0  0  0  0  0  0  0  0  0  0  0  0  0  0  0  0  0  0  0  0  0  0  1  0  0  0  0  0  0  0  0  0  0  0  0  0  0  0  0  0  0  0 | ag = 33
  0  0  0  0  0  0  0  0  0  0  0  0  0  0  0  0  0  0  0  0  0  0  0  0  0  0  0  0  0  0  0  0  0  1  0  0  0  0  0  0  0  0  0  0  0  0  0  0  0  0  0  0 | ah = 34
  0  0  0  0  0  0  0  0  0  0  0  0  0  0  0  0  0  0  0  0  0  0  0  0  0  0  0  0  0  0  0  0  0  0  1  0  0  0  0  0  0  0  0  0  0  0  0  0  0  0  0  0 | ai = 35
  0  0  0  0  0  0  0  0  0  0  0  0  0  0  0  0  0  0  0  0  0  0  0  0  0  0  0  0  0  0  0  0  0  0  0  1  0  0  0  0  0  0  0  0  0  0  0  0  0  0  0  0 | aj = 36
  0  0  0  0  0  0  0  0  0  0  0  0  0  0  0  0  0  0  0  0  0  0  0  0  0  0  0  0  0  0  0  0  0  0  0  0  1  0  0  0  0  0  0  0  0  0  0  0  0  0  0  0 | ak = 37
  0  0  0  0  0  0  0  0  0  0  0  0  0  0  0  0  0  0  0  0  0  0  0  0  0  0  0  0  0  0  0  0  0  0  0  0  0  1  0  0  0  0  0  0  0  0  0  0  0  0  0  0 | al = 38
  0  0  0  0  0  0  0  0  0  0  0  0  0  0  0  0  0  0  0  0  0  0  0  0  0  0  0  0  0  0  0  0  0  0  0  0  0  0  1  0  0  0  0  0  0  0  0  0  0  0  0  0 | am = 39
  0  0  0  0  0  0  0  0  0  0  0  0  0  0  0  0  0  0  0  0  0  0  0  0  0  0  0  0  0  0  0  0  0  0  0  0  0  0  0  1  0  0  0  0  0  0  0  0  0  0  0  0 | an = 40
  0  0  0  0  0  0  0  0  0  0  0  0  0  0  0  0  0  0  0  0  0  0  0  0  0  0  0  0  0  0  0  0  0  0  0  0  0  0  0  0  1  0  0  0  0  0  0  0  0  0  0  0 | ao = 41
  0  0  0  0  0  0  0  0  0  0  0  0  0  0  0  0  0  0  0  0  0  0  0  0  0  0  0  0  0  0  0  0  0  0  0  0  0  0  0  0  0  1  0  0  0  0  0  0  0  0  0  0 | ap = 42
  0  0  0  0  0  0  0  0  0  0  0  0  0  0  0  0  0  0  0  0  0  0  0  0  0  0  0  0  0  0  0  0  0  0  0  0  0  0  0  0  0  0  1  0  0  0  0  0  0  0  0  0 | aq = 43
  0  0  0  0  0  0  0  0  0  0  0  0  0  0  0  0  0  0  0  0  0  0  0  0  0  0  0  0  0  0  0  0  0  0  0  0  0  0  0  0  0  0  0  1  0  0  0  0  0  0  0  0 | ar = 44
  0  0  0  0  0  0  0  0  0  0  0  0  0  0  0  0  0  0  0  0  0  0  0  0  0  0  0  0  0  0  0  0  0  0  0  0  0  0  0  0  0  0  0  0  1  0  0  0  0  0  0  0 | as = 45
  0  0  0  0  0  0  0  0  0  0  0  0  0  0  0  0  0  0  0  0  0  0  0  0  0  0  0  0  0  0  0  0  0  0  0  0  0  0  0  0  0  0  0  0  0  1  0  0  0  0  0  0 | at = 46
  0  0  0  0  0  0  0  0  0  0  0  0  0  0  0  0  0  0  0  0  0  0  0  0  0  0  0  0  0  0  0  0  0  0  0  0  0  0  0  0  0  0  0  0  0  0  1  0  0  0  0  0 | au = 47
  0  0  0  0  0  0  0  0  0  0  0  0  0  0  0  0  0  0  0  0  0  0  0  0  0  0  0  0  0  0  0  0  0  0  0  0  0  0  0  0  0  0  0  0  0  0  0  1  0  0  0  0 | av = 48
  0  0  0  0  0  0  0  0  0  0  0  0  0  0  0  0  0  0  0  0  0  0  0  0  0  0  0  0  0  0  0  0  0  0  0  0  0  0  0  0  0  0  0  0  0  0  0  0  1  0  0  0 | aw = 49
  0  0  0  0  0  0  0  0  0  0  0  0  0  0  0  0  0  0  0  0  0  0  0  0  0  0  0  0  0  0  0  0  0  0  0  0  0  0  0  0  0  0  0  0  0  0  0  0  0  1  0  0 | ax = 50
  0  0  0  0  0  0  0  0  0  0  0  0  0  0  0  0  0  0  0  0  0  0  0  0  0  0  0  0  0  0  0  0  0  0  0  0  0  0  0  0  0  0  0  0  0  0  0  0  0  0  1  0 | ay = 51
  0  0  0  0  0  0  0  0  0  0  0  0  0  0  0  0  0  0  0  0  0  0  0  0  0  0  0  0  0  0  0  0  0  0  0  0  0  0  0  0  0  0  0  0  0  0  0  0  0  0  0  1 | az = 52


=== Error on test data ===

Correctly Classified Instances           1                1.9231 %
Incorrectly Classified Instances        51               98.0769 %
Kappa statistic                          0     
Mean absolute error                      0.0377
Root mean squared error                  0.1942
Relative absolute error                100      %
Root relative squared error            141.4213 %
Total Number of Instances               52     


=== Confusion Matrix ===

  a  b  c  d  e  f  g  h  i  j  k  l  m  n  o  p  q  r  s  t  u  v  w  x  y  z aa ab ac ad ae af ag ah ai aj ak al am an ao ap aq ar as at au av aw ax ay az   <-- classified as
  0  0  0  0  0  0  0  0  0  0  0  0  0  0  0  0  0  0  0  0  0  0  0  0  0  0  0  0  1  0  0  0  0  0  0  0  0  0  0  0  0  0  0  0  0  0  0  0  0  0  0  0 |  a = 1
  0  0  0  0  0  0  0  0  0  0  0  0  0  0  0  0  0  0  0  0  0  0  0  0  0  0  0  0  1  0  0  0  0  0  0  0  0  0  0  0  0  0  0  0  0  0  0  0  0  0  0  0 |  b = 2
  0  0  0  0  0  0  0  0  0  0  0  0  0  0  0  0  0  0  0  0  0  0  0  0  0  0  0  0  1  0  0  0  0  0  0  0  0  0  0  0  0  0  0  0  0  0  0  0  0  0  0  0 |  c = 3
  0  0  0  0  0  0  0  0  0  0  0  0  0  0  0  0  0  0  0  0  0  0  0  0  0  0  0  0  1  0  0  0  0  0  0  0  0  0  0  0  0  0  0  0  0  0  0  0  0  0  0  0 |  d = 4
  0  0  0  0  0  0  0  0  0  0  0  0  0  0  0  0  0  0  0  0  0  0  0  0  0  0  0  0  1  0  0  0  0  0  0  0  0  0  0  0  0  0  0  0  0  0  0  0  0  0  0  0 |  e = 5
  0  0  0  0  0  0  0  0  0  0  0  0  0  0  0  0  0  0  0  0  0  0  0  0  0  0  0  0  1  0  0  0  0  0  0  0  0  0  0  0  0  0  0  0  0  0  0  0  0  0  0  0 |  f = 6
  0  0  0  0  0  0  0  0  0  0  0  0  0  0  0  0  0  0  0  0  0  0  0  0  0  0  0  0  1  0  0  0  0  0  0  0  0  0  0  0  0  0  0  0  0  0  0  0  0  0  0  0 |  g = 7
  0  0  0  0  0  0  0  0  0  0  0  0  0  0  0  0  0  0  0  0  0  0  0  0  0  0  0  0  1  0  0  0  0  0  0  0  0  0  0  0  0  0  0  0  0  0  0  0  0  0  0  0 |  h = 8
  0  0  0  0  0  0  0  0  0  0  0  0  0  0  0  0  0  0  0  0  0  0  0  0  0  0  0  0  1  0  0  0  0  0  0  0  0  0  0  0  0  0  0  0  0  0  0  0  0  0  0  0 |  i = 9
  0  0  0  0  0  0  0  0  0  0  0  0  0  0  0  0  0  0  0  0  0  0  0  0  0  0  0  0  1  0  0  0  0  0  0  0  0  0  0  0  0  0  0  0  0  0  0  0  0  0  0  0 |  j = 10
  0  0  0  0  0  0  0  0  0  0  0  0  0  0  0  0  0  0  0  0  0  0  0  0  0  0  0  0  1  0  0  0  0  0  0  0  0  0  0  0  0  0  0  0  0  0  0  0  0  0  0  0 |  k = 11
  0  0  0  0  0  0  0  0  0  0  0  0  0  0  0  0  0  0  0  0  0  0  0  0  0  0  0  0  1  0  0  0  0  0  0  0  0  0  0  0  0  0  0  0  0  0  0  0  0  0  0  0 |  l = 12
  0  0  0  0  0  0  0  0  0  0  0  0  0  0  0  0  0  0  0  0  0  0  0  0  0  0  0  0  1  0  0  0  0  0  0  0  0  0  0  0  0  0  0  0  0  0  0  0  0  0  0  0 |  m = 13
  0  0  0  0  0  0  0  0  0  0  0  0  0  0  0  0  0  0  0  0  0  0  0  0  0  0  0  0  1  0  0  0  0  0  0  0  0  0  0  0  0  0  0  0  0  0  0  0  0  0  0  0 |  n = 14
  0  0  0  0  0  0  0  0  0  0  0  0  0  0  0  0  0  0  0  0  0  0  0  0  0  0  0  0  1  0  0  0  0  0  0  0  0  0  0  0  0  0  0  0  0  0  0  0  0  0  0  0 |  o = 15
  0  0  0  0  0  0  0  0  0  0  0  0  0  0  0  0  0  0  0  0  0  0  0  0  0  0  0  0  1  0  0  0  0  0  0  0  0  0  0  0  0  0  0  0  0  0  0  0  0  0  0  0 |  p = 16
  0  0  0  0  0  0  0  0  0  0  0  0  0  0  0  0  0  0  0  0  0  0  0  0  0  0  0  0  1  0  0  0  0  0  0  0  0  0  0  0  0  0  0  0  0  0  0  0  0  0  0  0 |  q = 17
  0  0  0  0  0  0  0  0  0  0  0  0  0  0  0  0  0  0  0  0  0  0  0  0  0  0  0  0  1  0  0  0  0  0  0  0  0  0  0  0  0  0  0  0  0  0  0  0  0  0  0  0 |  r = 18
  0  0  0  0  0  0  0  0  0  0  0  0  0  0  0  0  0  0  0  0  0  0  0  0  0  0  0  0  1  0  0  0  0  0  0  0  0  0  0  0  0  0  0  0  0  0  0  0  0  0  0  0 |  s = 19
  0  0  0  0  0  0  0  0  0  0  0  0  0  0  0  0  0  0  0  0  0  0  0  0  0  0  0  0  1  0  0  0  0  0  0  0  0  0  0  0  0  0  0  0  0  0  0  0  0  0  0  0 |  t = 20
  0  0  0  0  0  0  0  0  0  0  0  0  0  0  0  0  0  0  0  0  0  0  0  0  0  0  0  0  1  0  0  0  0  0  0  0  0  0  0  0  0  0  0  0  0  0  0  0  0  0  0  0 |  u = 21
  0  0  0  0  0  0  0  0  0  0  0  0  0  0  0  0  0  0  0  0  0  0  0  0  0  0  0  0  1  0  0  0  0  0  0  0  0  0  0  0  0  0  0  0  0  0  0  0  0  0  0  0 |  v = 22
  0  0  0  0  0  0  0  0  0  0  0  0  0  0  0  0  0  0  0  0  0  0  0  0  0  0  0  0  1  0  0  0  0  0  0  0  0  0  0  0  0  0  0  0  0  0  0  0  0  0  0  0 |  w = 23
  0  0  0  0  0  0  0  0  0  0  0  0  0  0  0  0  0  0  0  0  0  0  0  0  0  0  0  0  1  0  0  0  0  0  0  0  0  0  0  0  0  0  0  0  0  0  0  0  0  0  0  0 |  x = 24
  0  0  0  0  0  0  0  0  0  0  0  0  0  0  0  0  0  0  0  0  0  0  0  0  0  0  0  0  1  0  0  0  0  0  0  0  0  0  0  0  0  0  0  0  0  0  0  0  0  0  0  0 |  y = 25
  0  0  0  0  0  0  0  0  0  0  0  0  0  0  0  0  0  0  0  0  0  0  0  0  0  0  0  0  1  0  0  0  0  0  0  0  0  0  0  0  0  0  0  0  0  0  0  0  0  0  0  0 |  z = 26
  0  0  0  0  0  0  0  0  0  0  0  0  0  0  0  0  0  0  0  0  0  0  0  0  0  0  0  0  1  0  0  0  0  0  0  0  0  0  0  0  0  0  0  0  0  0  0  0  0  0  0  0 | aa = 27
  0  0  0  0  0  0  0  0  0  0  0  0  0  0  0  0  0  0  0  0  0  0  0  0  0  0  0  0  1  0  0  0  0  0  0  0  0  0  0  0  0  0  0  0  0  0  0  0  0  0  0  0 | ab = 28
  0  0  0  0  0  0  0  0  0  0  0  0  0  0  0  0  0  0  0  0  0  0  0  0  0  0  0  0  1  0  0  0  0  0  0  0  0  0  0  0  0  0  0  0  0  0  0  0  0  0  0  0 | ac = 29
  0  0  0  0  0  0  0  0  0  0  0  0  0  0  0  0  0  0  0  0  0  0  0  0  0  0  0  0  1  0  0  0  0  0  0  0  0  0  0  0  0  0  0  0  0  0  0  0  0  0  0  0 | ad = 30
  0  0  0  0  0  0  0  0  0  0  0  0  0  0  0  0  0  0  0  0  0  0  0  0  0  0  0  0  1  0  0  0  0  0  0  0  0  0  0  0  0  0  0  0  0  0  0  0  0  0  0  0 | ae = 31
  0  0  0  0  0  0  0  0  0  0  0  0  0  0  0  0  0  0  0  0  0  0  0  0  0  0  0  0  1  0  0  0  0  0  0  0  0  0  0  0  0  0  0  0  0  0  0  0  0  0  0  0 | af = 32
  0  0  0  0  0  0  0  0  0  0  0  0  0  0  0  0  0  0  0  0  0  0  0  0  0  0  0  0  1  0  0  0  0  0  0  0  0  0  0  0  0  0  0  0  0  0  0  0  0  0  0  0 | ag = 33
  0  0  0  0  0  0  0  0  0  0  0  0  0  0  0  0  0  0  0  0  0  0  0  0  0  0  0  0  1  0  0  0  0  0  0  0  0  0  0  0  0  0  0  0  0  0  0  0  0  0  0  0 | ah = 34
  0  0  0  0  0  0  0  0  0  0  0  0  0  0  0  0  0  0  0  0  0  0  0  0  0  0  0  0  1  0  0  0  0  0  0  0  0  0  0  0  0  0  0  0  0  0  0  0  0  0  0  0 | ai = 35
  0  0  0  0  0  0  0  0  0  0  0  0  0  0  0  0  0  0  0  0  0  0  0  0  0  0  0  0  1  0  0  0  0  0  0  0  0  0  0  0  0  0  0  0  0  0  0  0  0  0  0  0 | aj = 36
  0  0  0  0  0  0  0  0  0  0  0  0  0  0  0  0  0  0  0  0  0  0  0  0  0  0  0  0  1  0  0  0  0  0  0  0  0  0  0  0  0  0  0  0  0  0  0  0  0  0  0  0 | ak = 37
  0  0  0  0  0  0  0  0  0  0  0  0  0  0  0  0  0  0  0  0  0  0  0  0  0  0  0  0  1  0  0  0  0  0  0  0  0  0  0  0  0  0  0  0  0  0  0  0  0  0  0  0 | al = 38
  0  0  0  0  0  0  0  0  0  0  0  0  0  0  0  0  0  0  0  0  0  0  0  0  0  0  0  0  1  0  0  0  0  0  0  0  0  0  0  0  0  0  0  0  0  0  0  0  0  0  0  0 | am = 39
  0  0  0  0  0  0  0  0  0  0  0  0  0  0  0  0  0  0  0  0  0  0  0  0  0  0  0  0  1  0  0  0  0  0  0  0  0  0  0  0  0  0  0  0  0  0  0  0  0  0  0  0 | an = 40
  0  0  0  0  0  0  0  0  0  0  0  0  0  0  0  0  0  0  0  0  0  0  0  0  0  0  0  0  1  0  0  0  0  0  0  0  0  0  0  0  0  0  0  0  0  0  0  0  0  0  0  0 | ao = 41
  0  0  0  0  0  0  0  0  0  0  0  0  0  0  0  0  0  0  0  0  0  0  0  0  0  0  0  0  1  0  0  0  0  0  0  0  0  0  0  0  0  0  0  0  0  0  0  0  0  0  0  0 | ap = 42
  0  0  0  0  0  0  0  0  0  0  0  0  0  0  0  0  0  0  0  0  0  0  0  0  0  0  0  0  1  0  0  0  0  0  0  0  0  0  0  0  0  0  0  0  0  0  0  0  0  0  0  0 | aq = 43
  0  0  0  0  0  0  0  0  0  0  0  0  0  0  0  0  0  0  0  0  0  0  0  0  0  0  0  0  1  0  0  0  0  0  0  0  0  0  0  0  0  0  0  0  0  0  0  0  0  0  0  0 | ar = 44
  0  0  0  0  0  0  0  0  0  0  0  0  0  0  0  0  0  0  0  0  0  0  0  0  0  0  0  0  1  0  0  0  0  0  0  0  0  0  0  0  0  0  0  0  0  0  0  0  0  0  0  0 | as = 45
  0  0  0  0  0  0  0  0  0  0  0  0  0  0  0  0  0  0  0  0  0  0  0  0  0  0  0  0  1  0  0  0  0  0  0  0  0  0  0  0  0  0  0  0  0  0  0  0  0  0  0  0 | at = 46
  0  0  0  0  0  0  0  0  0  0  0  0  0  0  0  0  0  0  0  0  0  0  0  0  0  0  0  0  1  0  0  0  0  0  0  0  0  0  0  0  0  0  0  0  0  0  0  0  0  0  0  0 | au = 47
  0  0  0  0  0  0  0  0  0  0  0  0  0  0  0  0  0  0  0  0  0  0  0  0  0  0  0  0  1  0  0  0  0  0  0  0  0  0  0  0  0  0  0  0  0  0  0  0  0  0  0  0 | av = 48
  0  0  0  0  0  0  0  0  0  0  0  0  0  0  0  0  0  0  0  0  0  0  0  0  0  0  0  0  1  0  0  0  0  0  0  0  0  0  0  0  0  0  0  0  0  0  0  0  0  0  0  0 | aw = 49
  0  0  0  0  0  0  0  0  0  0  0  0  0  0  0  0  0  0  0  0  0  0  0  0  0  0  0  0  1  0  0  0  0  0  0  0  0  0  0  0  0  0  0  0  0  0  0  0  0  0  0  0 | ax = 50
  0  0  0  0  0  0  0  0  0  0  0  0  0  0  0  0  0  0  0  0  0  0  0  0  0  0  0  0  1  0  0  0  0  0  0  0  0  0  0  0  0  0  0  0  0  0  0  0  0  0  0  0 | ay = 51
  0  0  0  0  0  0  0  0  0  0  0  0  0  0  0  0  0  0  0  0  0  0  0  0  0  0  0  0  1  0  0  0  0  0  0  0  0  0  0  0  0  0  0  0  0  0  0  0  0  0  0  0 | az = 52

